"LightmappedGeneric"
{
	"$basetexture" "Stone/stonewall021f"
	"$surfaceprop" "glass"
	"$envmaptint" "[ 0.5 0.5 0.5 ]"
	"$envmap" "env_cubemap"
	"%keywords" "c17downtown"
	"$envmapmask" "Stone/stonewall021f_mask"
}
