"LightmappedGeneric"
{
%keywords "eyemat"

	"$basetexture" "wall/wall_techno_17b"

	"$bumpmap" "wall/wall_techno_17_bump"
	"$surfaceprop" "metal"
	"$envmap" "env_cubemap"
	"$normalmapalphaenvmapmask" "1"
	"$envmapcontrast" .8
	"$envmapsaturation" 1
	"$envmaptint" "[ .2 .2 .2 ]"
}
