"LightmappedGeneric"
{
%keywords "eyemat"

	"$basetexture" "wall/wall_techno_12b"
	"$bumpmap" "wall/wall_techno_12_bump"
	
	"$surfaceprop" "metal"

	"$envmap" "env_cubemap"
	"$normalmapalphaenvmapmask" "1"
	"$envmapcontrast" .6
	"$envmapsaturation" .5
	"$envmaptint" "[ .2 .2 .2 ]"
}
