"LightmappedGeneric"
{
%keywords "eyemat"
	"$basetexture" "wall/wood_wall_06"
	"$surfaceprop" "wood"
	//"$bumpmap" "wall/wood_wall_06_normal"
	//"$envmap" "Environment Maps/rg"
	"$envmap" "env_cubemap"
	"$envmapmask" "wall/wood_wall_06_mask"
	"$envmapcontrast" .7
	"$envmapsaturation" .7
	"$envmaptint" "[ .04 .04 .04]"

}
