"VertexLitGeneric"
{
	"$basetexture" "models\props_arcturus\cable_003_red_diff"
	"$bumpmap"	"models\props_arcturus\cable_003_nrm"

	"$normalmapalphaenvmapmask" "1"
	"$envmaptint" "[ .1 .1 .1 ]"
	"$envmap" "env_cubemap"
		
	"$phong" "1"
	"$phongexponent" "5"
	"$phongboost" "1.5"	
	"$phongfresnelranges"	"[0.2.5 1]"
	
	"$RIMLIGHT" "1"
	"$RIMLIGHTEXPONENT" "100"
	"$RIMLIGHTBOOST"  "0.02"
	"$rimmmask" "1"
}