"VertexLitGeneric"
{
	"$basetexture" "models\props_arcturus\modular_corridor_ceiling_cm"
	"$bumpmap"	"models\props_arcturus\modular_corridor_ceiling_nm"

	"$normalmapalphaenvmapmask" "1"
	"$envmaptint" "[ .25 .25 .25 ]"
	"$envmap" "env_cubemap"
		
	"$phong" "1"
	"$phongexponent" "30"
	"$phongboost" "5"	
	"$phongfresnelranges"	"[0.2.5 1]"
	
	"$RIMLIGHT" "1"
	"$RIMLIGHTEXPONENT" "100"
	"$RIMLIGHTBOOST"  "0.02"
	"$rimmmask" "1"
}