// Created by Crowbar 0.68
version 1
nodes
  0 "root" -1
  1 "upper_telescope_01" 0
  2 "fork_base" 1
  3 "turret_back" 2
  4 "turret_muzzle" 3
  5 "turretArm01" 1
  6 "turretArm02" 5
  7 "turretArm03" 6
  8 "weapon_bone" 3
  9 "v_sapper_handle" 8
  10 "hose_0_L" 8
  11 "hose_1_L" 8
  12 "hose_2_L" 8
  13 "hose_3_L" 8
  14 "hose_0_R" 8
  15 "hose_1_R" 8
  16 "hose_2_R" 8
  17 "hose_3_R" 8
end
skeleton
  time 0
    0 0.000000 -3.558594 17.343750 1.570792 0.000005 -0.000005
    1 0.000000 7.264774 0.030623 0.000000 0.000000 0.000000
    2 0.000000 3.585697 0.000000 0.000000 0.000000 0.000000
    3 0.000000 9.222876 -13.762436 0.000000 0.000000 0.000000
    4 1.893722 -2.175644 25.291351 0.000000 0.000000 0.000000
    5 0.000000 1.729246 -4.955632 -1.570796 0.813639 -1.570796
    6 4.928651 0.000000 0.000000 0.000000 -1.570796 0.757157
    7 0.000000 5.407930 -5.191290 0.000000 0.000000 0.000000
    8 0.008688 5.901482 0.092555 -1.570797 0.348026 0.000000
    9 -0.025243 2.221658 0.001053 2.267765 0.000000 0.000000
    10 4.366010 5.990407 0.394966 0.000000 0.000000 0.000000
    11 14.476262 14.780077 -8.485741 -0.122155 0.385028 -0.125135
    12 19.855289 6.521040 -11.036263 -0.161963 0.208305 -0.038983
    13 12.636903 -2.395953 -7.546478 -0.021945 -0.108568 -0.419702
    14 1.859529 5.989947 0.495770 -3.141592 0.000000 0.000000
    15 -1.543226 16.951002 -11.011364 2.865048 -0.239442 -0.064754
    16 -14.310124 14.225134 -10.945374 2.988240 -0.099191 0.046096
    17 -12.224389 2.049813 -6.728729 3.130706 0.094504 0.017196
  time 1
    0 0.000000 -3.558594 17.343750 1.570792 0.000005 -0.000005
    1 0.000000 7.264774 0.030623 0.000000 0.000000 0.000000
    2 0.000000 3.585697 0.000000 0.000000 0.000000 0.000000
    3 0.000000 9.222876 -13.762436 0.000000 0.000000 0.000000
    4 1.893722 -2.175644 25.291351 0.000000 0.000000 0.000000
    5 0.000000 1.729246 -4.955632 -1.570796 0.813639 -1.570796
    6 4.928651 0.000000 0.000000 0.000000 -1.570796 0.757157
    7 0.000000 5.407930 -5.191290 0.000000 0.000000 0.000000
    8 0.008688 5.901482 0.092555 -1.570797 0.348026 0.000000
    9 -0.025243 2.221658 0.001053 2.267765 0.000000 0.000000
    10 4.366010 5.990407 0.394966 0.000000 0.000000 0.000000
    11 14.476262 14.780077 -8.485741 -0.122155 0.385028 -0.125135
    12 19.855289 6.521040 -11.036263 -0.161963 0.208305 -0.038983
    13 12.636903 -2.395953 -7.546478 -0.021945 -0.108568 -0.419702
    14 1.859529 5.989947 0.495770 -3.141592 0.000000 0.000000
    15 -1.543226 16.951002 -11.011364 2.865048 -0.239442 -0.064754
    16 -14.310124 14.225134 -10.945374 2.988240 -0.099191 0.046096
    17 -12.224389 2.049813 -6.728729 3.130706 0.094504 0.017196
  time 2
    0 0.000000 -3.558594 17.343750 1.570792 0.000005 -0.000005
    1 0.000000 7.264774 0.030623 0.000000 0.000000 0.000000
    2 0.000000 3.585697 0.000000 0.000000 0.000000 0.000000
    3 0.000000 9.222876 -13.762436 0.000000 0.000000 0.000000
    4 1.893722 -2.175644 25.291351 0.000000 0.000000 0.000000
    5 0.000000 1.729246 -4.955632 -1.570796 0.813639 -1.570796
    6 4.928651 0.000000 0.000000 0.000000 -1.570796 0.757157
    7 0.000000 5.407930 -5.191290 0.000000 0.000000 0.000000
    8 0.008688 5.901482 0.092555 -1.570797 0.348026 0.000000
    9 -0.025243 2.221658 0.001053 2.267765 0.000000 0.000000
    10 4.366010 5.990407 0.394966 0.000000 0.000000 0.000000
    11 14.476262 14.780077 -8.485741 -0.122155 0.385028 -0.125135
    12 19.855289 6.521040 -11.036263 -0.161963 0.208305 -0.038983
    13 12.636903 -2.395953 -7.546478 -0.021945 -0.108568 -0.419702
    14 1.859529 5.989947 0.495770 -3.141592 0.000000 0.000000
    15 -1.543226 16.951002 -11.011364 2.865048 -0.239442 -0.064754
    16 -14.310124 14.225134 -10.945374 2.988240 -0.099191 0.046096
    17 -12.224389 2.049813 -6.728729 3.130706 0.094504 0.017196
  time 3
    0 0.000000 -3.558594 17.343750 1.570792 0.000005 -0.000005
    1 0.000000 7.264774 0.030623 0.000000 0.000000 0.000000
    2 0.000000 3.585697 0.000000 0.000000 0.000000 0.000000
    3 0.000000 9.222876 -13.762436 0.000000 0.000000 0.000000
    4 1.893722 -2.175644 25.291351 0.000000 0.000000 0.000000
    5 0.000000 1.729246 -4.955632 -1.570796 0.813639 -1.570796
    6 4.928651 0.000000 0.000000 0.000000 -1.570796 0.757157
    7 0.000000 5.407930 -5.191290 0.000000 0.000000 0.000000
    8 0.008688 5.901482 0.092555 -1.570797 0.348026 0.000000
    9 -0.025243 2.221658 0.001053 2.267765 0.000000 0.000000
    10 4.366010 5.990407 0.394966 0.000000 0.000000 0.000000
    11 14.476262 14.780077 -8.485741 -0.122155 0.385028 -0.125135
    12 19.855289 6.521040 -11.036263 -0.161963 0.208305 -0.038983
    13 12.636903 -2.395953 -7.546478 -0.021945 -0.108568 -0.419702
    14 1.859529 5.989947 0.495770 -3.141592 0.000000 0.000000
    15 -1.543226 16.951002 -11.011364 2.865048 -0.239442 -0.064754
    16 -14.310124 14.225134 -10.945374 2.988240 -0.099191 0.046096
    17 -12.224389 2.049813 -6.728729 3.130706 0.094504 0.017196
  time 4
    0 0.000000 -3.558594 17.343750 1.570792 0.000005 -0.000005
    1 0.000000 7.264774 0.030623 0.000000 0.000000 0.000000
    2 0.000000 3.585697 0.000000 0.000000 0.000000 0.000000
    3 0.000000 9.222876 -13.762436 0.000000 0.000000 0.000000
    4 1.893722 -2.175644 25.291351 0.000000 0.000000 0.000000
    5 0.000000 1.729246 -4.955632 -1.570796 0.813639 -1.570796
    6 4.928651 0.000000 0.000000 0.000000 -1.570796 0.757157
    7 0.000000 5.407930 -5.191290 0.000000 0.000000 0.000000
    8 0.008688 5.901482 0.092555 -1.570797 0.348026 0.000000
    9 -0.025243 2.221658 0.001053 2.267765 0.000000 0.000000
    10 4.366010 5.990407 0.394966 0.000000 0.000000 0.000000
    11 14.476262 14.780077 -8.485741 -0.122155 0.385028 -0.125135
    12 19.855289 6.521040 -11.036263 -0.161963 0.208305 -0.038983
    13 12.636903 -2.395953 -7.546478 -0.021945 -0.108568 -0.419702
    14 1.859529 5.989947 0.495770 -3.141592 0.000000 0.000000
    15 -1.543226 16.951002 -11.011364 2.865048 -0.239442 -0.064754
    16 -14.310124 14.225134 -10.945374 2.988240 -0.099191 0.046096
    17 -12.224389 2.049813 -6.728729 3.130706 0.094504 0.017196
  time 5
    0 0.000000 -3.558594 17.343750 1.570792 0.000005 -0.000005
    1 0.000000 7.264774 0.030623 0.000000 0.000000 0.000000
    2 0.000000 3.585697 0.000000 0.000000 0.000000 0.000000
    3 0.000000 9.222876 -13.762436 0.000000 0.000000 0.000000
    4 1.893722 -2.175644 25.291351 0.000000 0.000000 0.000000
    5 0.000000 1.729246 -4.955632 -1.570796 0.813639 -1.570796
    6 4.928651 0.000000 0.000000 0.000000 -1.570796 0.757157
    7 0.000000 5.407930 -5.191290 0.000000 0.000000 0.000000
    8 0.008688 5.901482 0.092555 -1.570797 0.348026 0.000000
    9 -0.025243 2.221658 0.001053 2.267765 0.000000 0.000000
    10 4.366010 5.990407 0.394966 0.000000 0.000000 0.000000
    11 14.476262 14.780077 -8.485741 -0.122155 0.385028 -0.125135
    12 19.855289 6.521040 -11.036263 -0.161963 0.208305 -0.038983
    13 12.636903 -2.395953 -7.546478 -0.021945 -0.108568 -0.419702
    14 1.859529 5.989947 0.495770 -3.141592 0.000000 0.000000
    15 -1.543226 16.951002 -11.011364 2.865048 -0.239442 -0.064754
    16 -14.310124 14.225134 -10.945374 2.988240 -0.099191 0.046096
    17 -12.224389 2.049813 -6.728729 3.130706 0.094504 0.017196
  time 6
    0 0.000000 -3.558594 17.343750 1.570792 0.000005 -0.000005
    1 0.000000 7.264774 0.030623 0.000000 0.000000 0.000000
    2 0.000000 3.585697 0.000000 0.000000 0.000000 0.000000
    3 0.000000 9.222876 -13.762436 0.000000 0.000000 0.000000
    4 1.893722 -2.175644 25.291351 0.000000 0.000000 0.000000
    5 0.000000 1.729246 -4.955632 -1.570796 0.813639 -1.570796
    6 4.928651 0.000000 0.000000 0.000000 -1.570796 0.757157
    7 0.000000 5.407930 -5.191290 0.000000 0.000000 0.000000
    8 0.008688 5.901482 0.092555 -1.570797 0.348026 0.000000
    9 -0.025243 2.221658 0.001053 2.267765 0.000000 0.000000
    10 4.366010 5.990407 0.394966 0.000000 0.000000 0.000000
    11 14.476262 14.780077 -8.485741 -0.122155 0.385028 -0.125135
    12 19.855289 6.521040 -11.036263 -0.161963 0.208305 -0.038983
    13 12.636903 -2.395953 -7.546478 -0.021945 -0.108568 -0.419702
    14 1.859529 5.989947 0.495770 -3.141592 0.000000 0.000000
    15 -1.543226 16.951002 -11.011364 2.865048 -0.239442 -0.064754
    16 -14.310124 14.225134 -10.945374 2.988240 -0.099191 0.046096
    17 -12.224389 2.049813 -6.728729 3.130706 0.094504 0.017196
  time 7
    0 0.000000 -3.558594 17.343750 1.570792 0.000005 -0.000005
    1 0.000000 7.264774 0.030623 0.000000 0.000000 0.000000
    2 0.000000 3.585697 0.000000 0.000000 0.000000 0.000000
    3 0.000000 9.222876 -13.762436 0.000000 0.000000 0.000000
    4 1.893722 -2.175644 25.291351 0.000000 0.000000 0.000000
    5 0.000000 1.729246 -4.955632 -1.570796 0.813639 -1.570796
    6 4.928651 0.000000 0.000000 0.000000 -1.570796 0.757157
    7 0.000000 5.407930 -5.191290 0.000000 0.000000 0.000000
    8 0.008688 5.901482 0.092555 -1.570797 0.348026 0.000000
    9 -0.025243 2.221658 0.001053 2.267765 0.000000 0.000000
    10 4.366010 5.990407 0.394966 0.000000 0.000000 0.000000
    11 14.476262 14.780077 -8.485741 -0.122155 0.385028 -0.125135
    12 19.855289 6.521040 -11.036263 -0.161963 0.208305 -0.038983
    13 12.636903 -2.395953 -7.546478 -0.021945 -0.108568 -0.419702
    14 1.859529 5.989947 0.495770 -3.141592 0.000000 0.000000
    15 -1.543226 16.951002 -11.011364 2.865048 -0.239442 -0.064754
    16 -14.310124 14.225134 -10.945374 2.988240 -0.099191 0.046096
    17 -12.224389 2.049813 -6.728729 3.130706 0.094504 0.017196
  time 8
    0 0.000000 -3.558594 17.343750 1.570792 0.000005 -0.000005
    1 0.000000 7.264774 0.030623 0.000000 0.000000 0.000000
    2 0.000000 3.585697 0.000000 0.000000 0.000000 0.000000
    3 0.000000 9.222876 -13.762436 0.000000 0.000000 0.000000
    4 1.893722 -2.175644 25.291351 0.000000 0.000000 0.000000
    5 0.000000 1.729246 -4.955632 -1.570796 0.813639 -1.570796
    6 4.928651 0.000000 0.000000 0.000000 -1.570796 0.757157
    7 0.000000 5.407930 -5.191290 0.000000 0.000000 0.000000
    8 0.008688 5.901482 0.092555 -1.570797 0.348026 0.000000
    9 -0.025243 2.221658 0.001053 2.267765 0.000000 0.000000
    10 4.366010 5.990407 0.394966 0.000000 0.000000 0.000000
    11 14.476262 14.780077 -8.485741 -0.122155 0.385028 -0.125135
    12 19.855289 6.521040 -11.036263 -0.161963 0.208305 -0.038983
    13 12.636903 -2.395953 -7.546478 -0.021945 -0.108568 -0.419702
    14 1.859529 5.989947 0.495770 -3.141592 0.000000 0.000000
    15 -1.543226 16.951002 -11.011364 2.865048 -0.239442 -0.064754
    16 -14.310124 14.225134 -10.945374 2.988240 -0.099191 0.046096
    17 -12.224389 2.049813 -6.728729 3.130706 0.094504 0.017196
  time 9
    0 0.000000 -3.558594 17.343750 1.570792 0.000005 -0.000005
    1 0.000000 7.264774 0.030623 0.000000 0.000000 0.000000
    2 0.000000 3.585697 0.000000 0.000000 0.000000 0.000000
    3 0.000000 9.222876 -13.762436 0.000000 0.000000 0.000000
    4 1.893722 -2.175644 25.291351 0.000000 0.000000 0.000000
    5 0.000000 1.729246 -4.955632 -1.570796 0.813639 -1.570796
    6 4.928651 0.000000 0.000000 0.000000 -1.570796 0.757157
    7 0.000000 5.407930 -5.191290 0.000000 0.000000 0.000000
    8 0.008688 5.901482 0.092555 -1.570797 0.348026 0.000000
    9 -0.025243 2.221658 0.001053 2.267765 0.000000 0.000000
    10 4.366010 5.990407 0.394966 0.000000 0.000000 0.000000
    11 14.476262 14.780077 -8.485741 -0.122155 0.385028 -0.125135
    12 19.855289 6.521040 -11.036263 -0.161963 0.208305 -0.038983
    13 12.636903 -2.395953 -7.546478 -0.021945 -0.108568 -0.419702
    14 1.859529 5.989947 0.495770 -3.141592 0.000000 0.000000
    15 -1.543226 16.951002 -11.011364 2.865048 -0.239442 -0.064754
    16 -14.310124 14.225134 -10.945374 2.988240 -0.099191 0.046096
    17 -12.224389 2.049813 -6.728729 3.130706 0.094504 0.017196
  time 10
    0 0.000000 -3.558594 17.343750 1.570792 0.000005 -0.000005
    1 0.000000 7.264774 0.030623 0.000000 0.000000 0.000000
    2 0.000000 3.585697 0.000000 0.000000 0.000000 0.000000
    3 0.000000 9.222876 -13.762436 0.000000 0.000000 0.000000
    4 1.893722 -2.175644 25.291351 0.000000 0.000000 0.000000
    5 0.000000 1.729246 -4.955632 -1.570796 0.813639 -1.570796
    6 4.928651 0.000000 0.000000 0.000000 -1.570796 0.757157
    7 0.000000 5.407930 -5.191290 0.000000 0.000000 0.000000
    8 0.008688 5.901482 0.092555 -1.570797 0.348026 0.000000
    9 -0.025243 2.221658 0.001053 2.267765 0.000000 0.000000
    10 4.366010 5.990407 0.394966 0.000000 0.000000 0.000000
    11 14.476262 14.780077 -8.485741 -0.122155 0.385028 -0.125135
    12 19.855289 6.521040 -11.036263 -0.161963 0.208305 -0.038983
    13 12.636903 -2.395953 -7.546478 -0.021945 -0.108568 -0.419702
    14 1.859529 5.989947 0.495770 -3.141592 0.000000 0.000000
    15 -1.543226 16.951002 -11.011364 2.865048 -0.239442 -0.064754
    16 -14.310124 14.225134 -10.945374 2.988240 -0.099191 0.046096
    17 -12.224389 2.049813 -6.728729 3.130706 0.094504 0.017196
  time 11
    0 0.000000 -3.558594 17.343750 1.570792 0.000005 -0.000005
    1 0.000000 7.264774 0.030623 0.000000 0.000000 0.000000
    2 0.000000 3.585697 0.000000 0.000000 0.000000 0.000000
    3 0.000000 9.222876 -13.762436 0.000000 0.000000 0.000000
    4 1.893722 -2.175644 25.291351 0.000000 0.000000 0.000000
    5 0.000000 1.729246 -4.955632 -1.570796 0.813639 -1.570796
    6 4.928651 0.000000 0.000000 0.000000 -1.570796 0.757157
    7 0.000000 5.407930 -5.191290 0.000000 0.000000 0.000000
    8 0.008688 5.901482 0.092555 -1.570797 0.348026 0.000000
    9 -0.025243 2.221658 0.001053 2.267765 0.000000 0.000000
    10 4.366010 5.990407 0.394966 0.000000 0.000000 0.000000
    11 14.476262 14.780077 -8.485741 -0.122155 0.385028 -0.125135
    12 19.855289 6.521040 -11.036263 -0.161963 0.208305 -0.038983
    13 12.636903 -2.395953 -7.546478 -0.021945 -0.108568 -0.419702
    14 1.859529 5.989947 0.495770 -3.141592 0.000000 0.000000
    15 -1.543226 16.951002 -11.011364 2.865048 -0.239442 -0.064754
    16 -14.310124 14.225134 -10.945374 2.988240 -0.099191 0.046096
    17 -12.224389 2.049813 -6.728729 3.130706 0.094504 0.017196
  time 12
    0 0.000000 -3.558594 17.343750 1.570792 0.000005 -0.000005
    1 0.000000 7.264774 0.030623 0.000000 0.000000 0.000000
    2 0.000000 3.585697 0.000000 0.000000 0.000000 0.000000
    3 0.000000 9.222876 -13.762436 0.000000 0.000000 0.000000
    4 1.893722 -2.175644 25.291351 0.000000 0.000000 0.000000
    5 0.000000 1.729246 -4.955632 -1.570796 0.813639 -1.570796
    6 4.928651 0.000000 0.000000 0.000000 -1.570796 0.757157
    7 0.000000 5.407930 -5.191290 0.000000 0.000000 0.000000
    8 0.008688 5.901482 0.092555 -1.570797 0.348026 0.000000
    9 -0.025243 2.221658 0.001053 2.267765 0.000000 0.000000
    10 4.366010 5.990407 0.394966 0.000000 0.000000 0.000000
    11 14.476262 14.780077 -8.485741 -0.122155 0.385028 -0.125135
    12 19.855289 6.521040 -11.036263 -0.161963 0.208305 -0.038983
    13 12.636903 -2.395953 -7.546478 -0.021945 -0.108568 -0.419702
    14 1.859529 5.989947 0.495770 -3.141592 0.000000 0.000000
    15 -1.543226 16.951002 -11.011364 2.865048 -0.239442 -0.064754
    16 -14.310124 14.225134 -10.945374 2.988240 -0.099191 0.046096
    17 -12.224389 2.049813 -6.728729 3.130706 0.094504 0.017196
  time 13
    0 0.000000 -3.558594 17.343750 1.570792 0.000005 -0.000005
    1 0.000000 7.264774 0.030623 0.000000 0.000000 0.000000
    2 0.000000 3.585697 0.000000 0.000000 0.000000 0.000000
    3 0.000000 9.222876 -13.762436 0.000000 0.000000 0.000000
    4 1.893722 -2.175644 25.291351 0.000000 0.000000 0.000000
    5 0.000000 1.729246 -4.955632 -1.570796 0.813639 -1.570796
    6 4.928651 0.000000 0.000000 0.000000 -1.570796 0.757157
    7 0.000000 5.407930 -5.191290 0.000000 0.000000 0.000000
    8 0.008688 5.901482 0.092555 -1.570797 0.348026 0.000000
    9 -0.025243 2.221658 0.001053 2.267765 0.000000 0.000000
    10 4.366010 5.990407 0.394966 0.000000 0.000000 0.000000
    11 14.476262 14.780077 -8.485741 -0.122155 0.385028 -0.125135
    12 19.855289 6.521040 -11.036263 -0.161963 0.208305 -0.038983
    13 12.636903 -2.395953 -7.546478 -0.021945 -0.108568 -0.419702
    14 1.859529 5.989947 0.495770 -3.141592 0.000000 0.000000
    15 -1.543226 16.951002 -11.011364 2.865048 -0.239442 -0.064754
    16 -14.310124 14.225134 -10.945374 2.988240 -0.099191 0.046096
    17 -12.224389 2.049813 -6.728729 3.130706 0.094504 0.017196
  time 14
    0 0.000000 -3.558594 17.343750 1.570792 0.000005 -0.000005
    1 0.000000 7.264774 0.030623 0.000000 0.000000 0.000000
    2 0.000000 3.585697 0.000000 0.000000 0.000000 0.000000
    3 0.000000 9.222876 -13.762436 0.000000 0.000000 0.000000
    4 1.893722 -2.175644 25.291351 0.000000 0.000000 0.000000
    5 0.000000 1.729246 -4.955632 -1.570796 0.813639 -1.570796
    6 4.928651 0.000000 0.000000 0.000000 -1.570796 0.757157
    7 0.000000 5.407930 -5.191290 0.000000 0.000000 0.000000
    8 0.008688 5.901482 0.092555 -1.570797 0.348026 0.000000
    9 -0.025243 2.221658 0.001053 2.267765 0.000000 0.000000
    10 4.366010 5.990407 0.394966 0.000000 0.000000 0.000000
    11 14.476262 14.780077 -8.485741 -0.122155 0.385028 -0.125135
    12 19.855289 6.521040 -11.036263 -0.161963 0.208305 -0.038983
    13 12.636903 -2.395953 -7.546478 -0.021945 -0.108568 -0.419702
    14 1.859529 5.989947 0.495770 -3.141592 0.000000 0.000000
    15 -1.543226 16.951002 -11.011364 2.865048 -0.239442 -0.064754
    16 -14.310124 14.225134 -10.945374 2.988240 -0.099191 0.046096
    17 -12.224389 2.049813 -6.728729 3.130706 0.094504 0.017196
  time 15
    0 0.000000 -3.558594 17.343750 1.570792 0.000005 -0.000005
    1 0.000000 7.264774 0.030623 0.000000 0.000000 0.000000
    2 0.000000 3.585697 0.000000 0.000000 0.000000 0.000000
    3 0.000000 9.222876 -13.762436 0.000000 0.000000 0.000000
    4 1.893722 -2.175644 25.291351 0.000000 0.000000 0.000000
    5 0.000000 1.729246 -4.955632 -1.570796 0.813639 -1.570796
    6 4.928651 0.000000 0.000000 0.000000 -1.570796 0.757157
    7 0.000000 5.407930 -5.191290 0.000000 0.000000 0.000000
    8 0.008688 5.901482 0.092555 -1.570797 0.348026 0.000000
    9 -0.025243 2.221658 0.001053 2.267765 0.000000 0.000000
    10 4.366010 5.990407 0.394966 0.000000 0.000000 0.000000
    11 14.476262 14.780077 -8.485741 -0.122155 0.385028 -0.125135
    12 19.855289 6.521040 -11.036263 -0.161963 0.208305 -0.038983
    13 12.636903 -2.395953 -7.546478 -0.021945 -0.108568 -0.419702
    14 1.859529 5.989947 0.495770 -3.141592 0.000000 0.000000
    15 -1.543226 16.951002 -11.011364 2.865048 -0.239442 -0.064754
    16 -14.310124 14.225134 -10.945374 2.988240 -0.099191 0.046096
    17 -12.224389 2.049813 -6.728729 3.130706 0.094504 0.017196
  time 16
    0 0.000000 -3.558594 17.343750 1.570792 0.000005 -0.000005
    1 0.000000 7.264774 0.030623 0.000000 0.000000 0.000000
    2 0.000000 3.585697 0.000000 0.000000 0.000000 0.000000
    3 0.000000 9.222876 -13.762436 0.000000 0.000000 0.000000
    4 1.893722 -2.175644 25.291351 0.000000 0.000000 0.000000
    5 0.000000 1.729246 -4.955632 -1.570796 0.813639 -1.570796
    6 4.928651 0.000000 0.000000 0.000000 -1.570796 0.757157
    7 0.000000 5.407930 -5.191290 0.000000 0.000000 0.000000
    8 0.008688 5.901482 0.092555 -1.570797 0.348026 0.000000
    9 -0.025243 2.221658 0.001053 2.267765 0.000000 0.000000
    10 4.366010 5.990407 0.394966 0.000000 0.000000 0.000000
    11 14.476262 14.780077 -8.485741 -0.122155 0.385028 -0.125135
    12 19.855289 6.521040 -11.036263 -0.161963 0.208305 -0.038983
    13 12.636903 -2.395953 -7.546478 -0.021945 -0.108568 -0.419702
    14 1.859529 5.989947 0.495770 -3.141592 0.000000 0.000000
    15 -1.543226 16.951002 -11.011364 2.865048 -0.239442 -0.064754
    16 -14.310124 14.225134 -10.945374 2.988240 -0.099191 0.046096
    17 -12.224389 2.049813 -6.728729 3.130706 0.094504 0.017196
  time 17
    0 0.000000 -3.558594 17.343750 1.570792 0.000005 -0.000005
    1 0.000000 7.264774 0.030623 0.000000 0.000000 0.000000
    2 0.000000 3.585697 0.000000 0.000000 0.000000 0.000000
    3 0.000000 9.222876 -13.762436 0.000000 0.000000 0.000000
    4 1.893722 -2.175644 25.291351 0.000000 0.000000 0.000000
    5 0.000000 1.729246 -4.955632 -1.570796 0.813639 -1.570796
    6 4.928651 0.000000 0.000000 0.000000 -1.570796 0.757157
    7 0.000000 5.407930 -5.191290 0.000000 0.000000 0.000000
    8 0.008688 5.901482 0.092555 -1.570797 0.348026 0.000000
    9 -0.025243 2.221658 0.001053 2.267765 0.000000 0.000000
    10 4.366010 5.990407 0.394966 0.000000 0.000000 0.000000
    11 14.476262 14.780077 -8.485741 -0.122155 0.385028 -0.125135
    12 19.855289 6.521040 -11.036263 -0.161963 0.208305 -0.038983
    13 12.636903 -2.395953 -7.546478 -0.021945 -0.108568 -0.419702
    14 1.859529 5.989947 0.495770 -3.141592 0.000000 0.000000
    15 -1.543226 16.951002 -11.011364 2.865048 -0.239442 -0.064754
    16 -14.310124 14.225134 -10.945374 2.988240 -0.099191 0.046096
    17 -12.224389 2.049813 -6.728729 3.130706 0.094504 0.017196
  time 18
    0 0.000000 -3.558594 17.343750 1.570792 0.000005 -0.000005
    1 0.000000 7.264774 0.030623 0.000000 0.000000 0.000000
    2 0.000000 3.585697 0.000000 0.000000 0.000000 0.000000
    3 0.000000 9.222876 -13.762436 0.000000 0.000000 0.000000
    4 1.893722 -2.175644 25.291351 0.000000 0.000000 0.000000
    5 0.000000 1.729246 -4.955632 -1.570796 0.813639 -1.570796
    6 4.928651 0.000000 0.000000 0.000000 -1.570796 0.757157
    7 0.000000 5.407930 -5.191290 0.000000 0.000000 0.000000
    8 0.008688 5.901482 0.092555 -1.570797 0.348026 0.000000
    9 -0.025243 2.221658 0.001053 2.267765 0.000000 0.000000
    10 4.366010 5.990407 0.394966 0.000000 0.000000 0.000000
    11 14.476262 14.780077 -8.485741 -0.122155 0.385028 -0.125135
    12 19.855289 6.521040 -11.036263 -0.161963 0.208305 -0.038983
    13 12.636903 -2.395953 -7.546478 -0.021945 -0.108568 -0.419702
    14 1.859529 5.989947 0.495770 -3.141592 0.000000 0.000000
    15 -1.543226 16.951002 -11.011364 2.865048 -0.239442 -0.064754
    16 -14.310124 14.225134 -10.945374 2.988240 -0.099191 0.046096
    17 -12.224389 2.049813 -6.728729 3.130706 0.094504 0.017196
  time 19
    0 0.000000 -3.558594 17.343750 1.570792 0.000005 -0.000005
    1 0.000000 7.264774 0.030623 0.000000 0.000000 0.000000
    2 0.000000 3.585697 0.000000 0.000000 0.000000 0.000000
    3 0.000000 9.222876 -13.762436 0.000000 0.000000 0.000000
    4 1.893722 -2.175644 25.291351 0.000000 0.000000 0.000000
    5 0.000000 1.729246 -4.955632 -1.570796 0.813639 -1.570796
    6 4.928651 0.000000 0.000000 0.000000 -1.570796 0.757157
    7 0.000000 5.407930 -5.191290 0.000000 0.000000 0.000000
    8 0.008688 5.901482 0.092555 -1.570797 0.348026 0.000000
    9 -0.025243 2.221658 0.001053 2.267765 0.000000 0.000000
    10 4.366010 5.990407 0.394966 0.000000 0.000000 0.000000
    11 14.476262 14.780077 -8.485741 -0.122155 0.385028 -0.125135
    12 19.855289 6.521040 -11.036263 -0.161963 0.208305 -0.038983
    13 12.636903 -2.395953 -7.546478 -0.021945 -0.108568 -0.419702
    14 1.859529 5.989947 0.495770 -3.141592 0.000000 0.000000
    15 -1.543226 16.951002 -11.011364 2.865048 -0.239442 -0.064754
    16 -14.310124 14.225134 -10.945374 2.988240 -0.099191 0.046096
    17 -12.224389 2.049813 -6.728729 3.130706 0.094504 0.017196
  time 20
    0 0.000000 -3.558594 17.343750 1.570792 0.000005 -0.000005
    1 0.000000 7.264774 0.030623 0.000000 0.000000 0.000000
    2 0.000000 3.585697 0.000000 0.000000 0.000000 0.000000
    3 0.000000 9.222876 -13.762436 0.000000 0.000000 0.000000
    4 1.893722 -2.175644 25.291351 0.000000 0.000000 0.000000
    5 0.000000 1.729246 -4.955632 -1.570796 0.813639 -1.570796
    6 4.928651 0.000000 0.000000 0.000000 -1.570796 0.757157
    7 0.000000 5.407930 -5.191290 0.000000 0.000000 0.000000
    8 0.008688 5.901482 0.092555 -1.570797 0.348026 0.000000
    9 -0.025243 2.221658 0.001053 2.267765 0.000000 0.000000
    10 4.366010 5.990407 0.394966 0.000000 0.000000 0.000000
    11 14.476262 14.780077 -8.485741 -0.122155 0.385028 -0.125135
    12 19.855289 6.521040 -11.036263 -0.161963 0.208305 -0.038983
    13 12.636903 -2.395953 -7.546478 -0.021945 -0.108568 -0.419702
    14 1.859529 5.989947 0.495770 -3.141592 0.000000 0.000000
    15 -1.543226 16.951002 -11.011364 2.865048 -0.239442 -0.064754
    16 -14.310124 14.225134 -10.945374 2.988240 -0.099191 0.046096
    17 -12.224389 2.049813 -6.728729 3.130706 0.094504 0.017196
  time 21
    0 0.000000 -3.558594 17.343750 1.570792 0.000005 -0.000005
    1 0.000000 7.264774 0.030623 0.000000 0.000000 0.000000
    2 0.000000 3.585697 0.000000 0.000000 0.000000 0.000000
    3 0.000000 9.222876 -13.762436 0.000000 0.000000 0.000000
    4 1.893722 -2.175644 25.291351 0.000000 0.000000 0.000000
    5 0.000000 1.729246 -4.955632 -1.570796 0.813639 -1.570796
    6 4.928651 0.000000 0.000000 0.000000 -1.570796 0.757157
    7 0.000000 5.407930 -5.191290 0.000000 0.000000 0.000000
    8 0.008688 5.901482 0.092555 -1.570797 0.348026 0.000000
    9 -0.025243 2.221658 0.001053 2.267765 0.000000 0.000000
    10 4.366010 5.990407 0.394966 0.000000 0.000000 0.000000
    11 14.476262 14.780077 -8.485741 -0.122155 0.385028 -0.125135
    12 19.855289 6.521040 -11.036263 -0.161963 0.208305 -0.038983
    13 12.636903 -2.395953 -7.546478 -0.021945 -0.108568 -0.419702
    14 1.859529 5.989947 0.495770 -3.141592 0.000000 0.000000
    15 -1.543226 16.951002 -11.011364 2.865048 -0.239442 -0.064754
    16 -14.310124 14.225134 -10.945374 2.988240 -0.099191 0.046096
    17 -12.224389 2.049813 -6.728729 3.130706 0.094504 0.017196
  time 22
    0 0.000000 -3.558594 17.343750 1.570792 0.000005 -0.000005
    1 0.000000 7.264774 0.030623 0.000000 0.000000 0.000000
    2 0.000000 3.585697 0.000000 0.000000 0.000000 0.000000
    3 0.000000 9.222876 -13.762436 0.000000 0.000000 0.000000
    4 1.893722 -2.175644 25.291351 0.000000 0.000000 0.000000
    5 0.000000 1.729246 -4.955632 -1.570796 0.813639 -1.570796
    6 4.928651 0.000000 0.000000 0.000000 -1.570796 0.757157
    7 0.000000 5.407930 -5.191290 0.000000 0.000000 0.000000
    8 0.008688 5.901482 0.092555 -1.570797 0.348026 0.000000
    9 -0.025243 2.221658 0.001053 2.267765 0.000000 0.000000
    10 4.366010 5.990407 0.394966 0.000000 0.000000 0.000000
    11 14.476262 14.780077 -8.485741 -0.122155 0.385028 -0.125135
    12 19.855289 6.521040 -11.036263 -0.161963 0.208305 -0.038983
    13 12.636903 -2.395953 -7.546478 -0.021945 -0.108568 -0.419702
    14 1.859529 5.989947 0.495770 -3.141592 0.000000 0.000000
    15 -1.543226 16.951002 -11.011364 2.865048 -0.239442 -0.064754
    16 -14.310124 14.225134 -10.945374 2.988240 -0.099191 0.046096
    17 -12.224389 2.049813 -6.728729 3.130706 0.094504 0.017196
  time 23
    0 0.000000 -3.558594 17.343750 1.570792 0.000005 -0.000005
    1 0.000000 7.264774 0.030623 0.000000 0.000000 0.000000
    2 0.000000 3.585697 0.000000 0.000000 0.000000 0.000000
    3 0.000000 9.222876 -13.762436 0.000000 0.000000 0.000000
    4 1.893722 -2.175644 25.291351 0.000000 0.000000 0.000000
    5 0.000000 1.729246 -4.955632 -1.570796 0.813639 -1.570796
    6 4.928651 0.000000 0.000000 0.000000 -1.570796 0.757157
    7 0.000000 5.407930 -5.191290 0.000000 0.000000 0.000000
    8 0.008688 5.901482 0.092555 -1.570797 0.348026 0.000000
    9 -0.025243 2.221658 0.001053 2.267765 0.000000 0.000000
    10 4.366010 5.990407 0.394966 0.000000 0.000000 0.000000
    11 14.476262 14.780077 -8.485741 -0.122155 0.385028 -0.125135
    12 19.855289 6.521040 -11.036263 -0.161963 0.208305 -0.038983
    13 12.636903 -2.395953 -7.546478 -0.021945 -0.108568 -0.419702
    14 1.859529 5.989947 0.495770 -3.141592 0.000000 0.000000
    15 -1.543226 16.951002 -11.011364 2.865048 -0.239442 -0.064754
    16 -14.310124 14.225134 -10.945374 2.988240 -0.099191 0.046096
    17 -12.224389 2.049813 -6.728729 3.130706 0.094504 0.017196
  time 24
    0 0.000000 -3.558594 17.343750 1.570792 0.000005 -0.000005
    1 0.000000 7.264774 0.030623 0.000000 0.000000 0.000000
    2 0.000000 3.585697 0.000000 0.000000 0.000000 0.000000
    3 0.000000 9.222876 -13.762436 0.000000 0.000000 0.000000
    4 1.893722 -2.175644 25.291351 0.000000 0.000000 0.000000
    5 0.000000 1.729246 -4.955632 -1.570796 0.813639 -1.570796
    6 4.928651 0.000000 0.000000 0.000000 -1.570796 0.757157
    7 0.000000 5.407930 -5.191290 0.000000 0.000000 0.000000
    8 0.008688 5.901482 0.092555 -1.570797 0.348026 0.000000
    9 -0.025243 2.221658 0.001053 2.267765 0.000000 0.000000
    10 4.366010 5.990407 0.394966 0.000000 0.000000 0.000000
    11 14.476262 14.780077 -8.485741 -0.122155 0.385028 -0.125135
    12 19.855289 6.521040 -11.036263 -0.161963 0.208305 -0.038983
    13 12.636903 -2.395953 -7.546478 -0.021945 -0.108568 -0.419702
    14 1.859529 5.989947 0.495770 -3.141592 0.000000 0.000000
    15 -1.543226 16.951002 -11.011364 2.865048 -0.239442 -0.064754
    16 -14.310124 14.225134 -10.945374 2.988240 -0.099191 0.046096
    17 -12.224389 2.049813 -6.728729 3.130706 0.094504 0.017196
  time 25
    0 0.000000 -3.558594 17.343750 1.570792 0.000005 -0.000005
    1 0.000000 7.264774 0.030623 0.000000 0.000000 0.000000
    2 0.000000 3.585697 0.000000 0.000000 0.000000 0.000000
    3 0.000000 9.222876 -13.762436 0.000000 0.000000 0.000000
    4 1.893722 -2.175644 25.291351 0.000000 0.000000 0.000000
    5 0.000000 1.729246 -4.955632 -1.570796 0.813639 -1.570796
    6 4.928651 0.000000 0.000000 0.000000 -1.570796 0.757157
    7 0.000000 5.407930 -5.191290 0.000000 0.000000 0.000000
    8 0.008688 5.901482 0.092555 -1.570797 0.348026 0.000000
    9 -0.025243 2.221658 0.001053 2.267765 0.000000 0.000000
    10 4.366010 5.990407 0.394966 0.000000 0.000000 0.000000
    11 14.476262 14.780077 -8.485741 -0.122155 0.385028 -0.125135
    12 19.855289 6.521040 -11.036263 -0.161963 0.208305 -0.038983
    13 12.636903 -2.395953 -7.546478 -0.021945 -0.108568 -0.419702
    14 1.859529 5.989947 0.495770 -3.141592 0.000000 0.000000
    15 -1.543226 16.951002 -11.011364 2.865048 -0.239442 -0.064754
    16 -14.310124 14.225134 -10.945374 2.988240 -0.099191 0.046096
    17 -12.224389 2.049813 -6.728729 3.130706 0.094504 0.017196
  time 26
    0 0.000000 -3.558594 17.343750 1.570792 0.000005 -0.000005
    1 0.000000 7.264774 0.030623 0.000000 0.000000 0.000000
    2 0.000000 3.585697 0.000000 0.000000 0.000000 0.000000
    3 0.000000 9.222876 -13.762436 0.000000 0.000000 0.000000
    4 1.893722 -2.175644 25.291351 0.000000 0.000000 0.000000
    5 0.000000 1.729246 -4.955632 -1.570796 0.813639 -1.570796
    6 4.928651 0.000000 0.000000 0.000000 -1.570796 0.757157
    7 0.000000 5.407930 -5.191290 0.000000 0.000000 0.000000
    8 0.008688 5.901482 0.092555 -1.570797 0.348026 0.000000
    9 -0.025243 2.221658 0.001053 2.267765 0.000000 0.000000
    10 4.366010 5.990407 0.394966 0.000000 0.000000 0.000000
    11 14.476262 14.780077 -8.485741 -0.122155 0.385028 -0.125135
    12 19.855289 6.521040 -11.036263 -0.161963 0.208305 -0.038983
    13 12.636903 -2.395953 -7.546478 -0.021945 -0.108568 -0.419702
    14 1.859529 5.989947 0.495770 -3.141592 0.000000 0.000000
    15 -1.543226 16.951002 -11.011364 2.865048 -0.239442 -0.064754
    16 -14.310124 14.225134 -10.945374 2.988240 -0.099191 0.046096
    17 -12.224389 2.049813 -6.728729 3.130706 0.094504 0.017196
  time 27
    0 0.000000 -3.558594 17.343750 1.570792 0.000005 -0.000005
    1 0.000000 7.264774 0.030623 0.000000 0.000000 0.000000
    2 0.000000 3.585697 0.000000 0.000000 0.000000 0.000000
    3 0.000000 9.222876 -13.762436 0.000000 0.000000 0.000000
    4 1.893722 -2.175644 25.291351 0.000000 0.000000 0.000000
    5 0.000000 1.729246 -4.955632 -1.570796 0.813639 -1.570796
    6 4.928651 0.000000 0.000000 0.000000 -1.570796 0.757157
    7 0.000000 5.407930 -5.191290 0.000000 0.000000 0.000000
    8 0.008688 5.901482 0.092555 -1.570797 0.348026 0.000000
    9 -0.025243 2.221658 0.001053 2.267765 0.000000 0.000000
    10 4.366010 5.990407 0.394966 0.000000 0.000000 0.000000
    11 14.476262 14.780077 -8.485741 -0.122155 0.385028 -0.125135
    12 19.855289 6.521040 -11.036263 -0.161963 0.208305 -0.038983
    13 12.636903 -2.395953 -7.546478 -0.021945 -0.108568 -0.419702
    14 1.859529 5.989947 0.495770 -3.141592 0.000000 0.000000
    15 -1.543226 16.951002 -11.011364 2.865048 -0.239442 -0.064754
    16 -14.310124 14.225134 -10.945374 2.988240 -0.099191 0.046096
    17 -12.224389 2.049813 -6.728729 3.130706 0.094504 0.017196
  time 28
    0 0.000000 -3.558594 17.343750 1.570792 0.000005 -0.000005
    1 0.000000 7.264774 0.030623 0.000000 0.000000 0.000000
    2 0.000000 3.585697 0.000000 0.000000 0.000000 0.000000
    3 0.000000 9.222876 -13.762436 0.000000 0.000000 0.000000
    4 1.893722 -2.175644 25.291351 0.000000 0.000000 0.000000
    5 0.000000 1.729246 -4.955632 -1.570796 0.813639 -1.570796
    6 4.928651 0.000000 0.000000 0.000000 -1.570796 0.757157
    7 0.000000 5.407930 -5.191290 0.000000 0.000000 0.000000
    8 0.008688 5.901482 0.092555 -1.570797 0.348026 0.000000
    9 -0.025243 2.221658 0.001053 2.267765 0.000000 0.000000
    10 4.366010 5.990407 0.394966 0.000000 0.000000 0.000000
    11 14.476262 14.780077 -8.485741 -0.122155 0.385028 -0.125135
    12 19.855289 6.521040 -11.036263 -0.161963 0.208305 -0.038983
    13 12.636903 -2.395953 -7.546478 -0.021945 -0.108568 -0.419702
    14 1.859529 5.989947 0.495770 -3.141592 0.000000 0.000000
    15 -1.543226 16.951002 -11.011364 2.865048 -0.239442 -0.064754
    16 -14.310124 14.225134 -10.945374 2.988240 -0.099191 0.046096
    17 -12.224389 2.049813 -6.728729 3.130706 0.094504 0.017196
  time 29
    0 0.000000 -3.558594 17.343750 1.570792 0.000005 -0.000005
    1 0.000000 7.264774 0.030623 0.000000 0.000000 0.000000
    2 0.000000 3.585697 0.000000 0.000000 0.000000 0.000000
    3 0.000000 9.222876 -13.762436 0.000000 0.000000 0.000000
    4 1.893722 -2.175644 25.291351 0.000000 0.000000 0.000000
    5 0.000000 1.729246 -4.955632 -1.570796 0.813639 -1.570796
    6 4.928651 0.000000 0.000000 0.000000 -1.570796 0.757157
    7 0.000000 5.407930 -5.191290 0.000000 0.000000 0.000000
    8 0.008688 5.901482 0.092555 -1.570797 0.348026 0.000000
    9 -0.025243 2.221658 0.001053 2.267765 0.000000 0.000000
    10 4.366010 5.990407 0.394966 0.000000 0.000000 0.000000
    11 14.476262 14.780077 -8.485741 -0.122155 0.385028 -0.125135
    12 19.855289 6.521040 -11.036263 -0.161963 0.208305 -0.038983
    13 12.636903 -2.395953 -7.546478 -0.021945 -0.108568 -0.419702
    14 1.859529 5.989947 0.495770 -3.141592 0.000000 0.000000
    15 -1.543226 16.951002 -11.011364 2.865048 -0.239442 -0.064754
    16 -14.310124 14.225134 -10.945374 2.988240 -0.099191 0.046096
    17 -12.224389 2.049813 -6.728729 3.130706 0.094504 0.017196
end
