"VertexlitGeneric"
{
	"$basetexture" "models/props_indus/vault"
	"$bumpmap" "models/props_indus/vault_normal"

	//phong parameters

	"$phong" "1"
	"$phongboost" "30"
	"$phongexponent" "85"
	"$phongfresnelranges" "[.1 .4 1]"
	"$phongtint" "[ 0.4 0.6 0.8 ]"
	
	// Environment map
	"$normalmapalphaenvmapmask" "1" // Not supported when self illum fresnel is enabled!
	"$envmap" "env_cubemap"
	"$envmaptint" "[0.25 0.25 0.25]"
}
