"UnlitTwoTexture"
{
	"$basetexture" "models\props_techno\monitor_screen_02_yellow"
	"$surfaceprop" "glass"
	"$texture2" "models\props_techno\stripes"
	"$nocull"	"1"
	"$models" "1"
	"$additive" "1"
    
    		"Proxies"
    		{
       		 "Sine"
        		{
            		"resultVar" "$color[0]"
            		"sineperiod" ".1"
            		"sinemin" ".98"
            		"sinemax" "1"
        		}
        		"Sine"
        		{
            		"resultVar" "$color[1]"
            		"sineperiod" ".1"
            		"sinemin" ".98"
            		"sinemax" "1"
        		}
        		"Sine"
        		{
           		"resultVar" "$color[2]"
            		"sineperiod" ".1"
            		"sinemin" ".99"
            		"sinemax" "1"
       		 }
        		"TextureScroll"
        		{
		"texturescrollvar" "$texture2transform"
		"texturescrollrate" "10"
		"texturescrollangle" "-90"
		}
	}
}

