// Created by Crowbar 0.68
version 1
nodes
  0 "ValveBiped.Bip01" -1
  1 "ValveBiped.Bip01_Spine" 0
  2 "ValveBiped.Bip01_Spine1" 1
  3 "ValveBiped.Bip01_Spine2" 2
  4 "ValveBiped.Bip01_Spine4" 3
  5 "ValveBiped.Bip01_L_Clavicle" 4
  6 "ValveBiped.Bip01_L_UpperArm" 5
  7 "ValveBiped.Bip01_L_Forearm" 6
  8 "ValveBiped.Bip01_L_Hand" 7
  9 "ValveBiped.Bip01_L_Finger4" 8
  10 "ValveBiped.Bip01_L_Finger41" 9
  11 "ValveBiped.Bip01_L_Finger42" 10
  12 "ValveBiped.Bip01_L_Finger3" 8
  13 "ValveBiped.Bip01_L_Finger31" 12
  14 "ValveBiped.Bip01_L_Finger32" 13
  15 "ValveBiped.Bip01_L_Finger2" 8
  16 "ValveBiped.Bip01_L_Finger21" 15
  17 "ValveBiped.Bip01_L_Finger22" 16
  18 "ValveBiped.Bip01_L_Finger1" 8
  19 "ValveBiped.Bip01_L_Finger11" 18
  20 "ValveBiped.Bip01_L_Finger12" 19
  21 "ValveBiped.Bip01_L_Finger0" 8
  22 "ValveBiped.Bip01_L_Finger01" 21
  23 "ValveBiped.Bip01_L_Finger02" 22
  24 "ValveBiped.base" 3
  25 "ValveBiped.handle" 24
  26 "ValveBiped.eject" 24
  27 "ValveBiped.muzzle" 24
  28 "ValveBiped" -1
end
skeleton
  time 0
    0 1.292485 -3.730578 -33.388403 1.570796 0.000000 0.000000
    1 0.000005 3.345127 -2.981904 1.570796 0.086293 1.570796
    2 4.018330 0.000002 0.000000 0.000000 0.000000 -0.029242
    3 3.518570 0.000000 0.000000 0.000000 0.000000 0.100336
    4 8.942642 0.000000 0.000000 0.000000 0.000000 0.194096
    5 2.033356 1.000767 1.937660 2.856284 -0.087004 1.424558
    6 6.028149 0.000000 0.000000 -2.189171 -0.141365 -0.598574
    7 11.692557 -0.000011 -0.000001 0.000000 0.000000 -1.667160
    8 11.481674 -0.000004 -0.000031 -0.566751 -0.310905 1.359067
    9 3.859711 -0.142404 -1.191978 -0.372623 0.151246 -0.938052
    10 1.312559 -0.000003 0.000015 0.000000 0.000000 -1.267530
    11 0.729362 -0.000009 0.000015 0.000000 0.000000 -1.155986
    12 3.942329 0.046771 -0.431446 -0.282530 -0.012793 -0.829988
    13 1.539093 0.000000 -0.000008 0.000000 0.000000 -1.277065
    14 1.196322 -0.000004 -0.000004 0.000000 0.000000 -1.795878
    15 3.883682 -0.046772 0.431435 -0.051681 -0.018858 -0.672071
    16 1.719582 -0.000002 -0.000008 0.000000 0.000003 -1.477115
    17 1.209185 -0.000004 -0.000004 0.000000 0.000004 -1.391274
    18 3.859856 -0.137947 1.332462 0.160095 -0.013795 -0.792635
    19 1.719433 -0.000008 0.000000 0.000000 0.000011 -1.578903
    20 1.099667 0.000004 0.000000 0.000000 0.000005 -1.439578
    21 0.806053 -0.348923 1.321251 -1.267547 -0.328391 -1.077354
    22 1.789780 0.000006 0.000004 0.000000 0.000000 0.288877
    23 1.207001 0.000002 -0.000004 0.000000 0.000000 0.449491
    24 16.980060 16.041219 -7.775462 0.000000 -1.570796 -1.555598
    25 0.087378 -1.651558 7.158638 0.000000 0.000000 0.000000
    26 -0.488876 2.223221 -1.367222 -3.141593 0.000000 -3.141593
    27 0.018969 0.548832 13.887943 0.000000 -1.570796 0.000000
    28 0.000000 0.000000 -67.937500 1.570792 0.000003 -0.000003
  time 1
    0 1.292485 -4.492320 -33.388403 1.570796 0.000000 0.000000
    1 0.000005 3.345127 -2.981904 1.570796 0.086293 1.570796
    2 4.018330 0.000002 0.000000 0.000000 0.000000 -0.029242
    3 3.518570 0.000000 0.000000 0.000000 0.000000 0.100336
    4 8.942642 0.000000 0.000000 0.000000 0.000000 0.194096
    5 2.033356 1.000767 1.937660 2.856284 -0.087004 1.424558
    6 6.028149 0.000000 0.000000 -2.158976 -0.113733 -0.521602
    7 11.692557 -0.000011 -0.000001 0.000000 0.000000 -1.582485
    8 11.481674 -0.000004 -0.000031 -0.636202 -0.260487 1.320561
    9 3.859711 -0.142404 -1.191978 -0.372623 0.151246 -0.938052
    10 1.312559 -0.000003 0.000015 0.000000 0.000000 -1.267530
    11 0.729362 -0.000009 0.000015 0.000000 0.000000 -1.155986
    12 3.942329 0.046771 -0.431446 -0.282530 -0.012793 -0.829988
    13 1.539093 0.000000 -0.000008 0.000000 0.000000 -1.277065
    14 1.196322 -0.000004 -0.000004 0.000000 0.000000 -1.795878
    15 3.883682 -0.046772 0.431435 -0.051681 -0.018858 -0.672071
    16 1.719582 -0.000002 -0.000008 0.000000 0.000003 -1.477115
    17 1.209185 -0.000004 -0.000004 0.000000 0.000016 -1.391239
    18 3.859856 -0.137947 1.332462 0.160095 -0.013795 -0.792635
    19 1.719433 -0.000008 0.000000 0.000000 0.000011 -1.578903
    20 1.099667 0.000004 0.000000 0.000000 0.000005 -1.439578
    21 0.806053 -0.348923 1.321251 -1.267547 -0.328391 -1.077354
    22 1.789780 0.000006 0.000004 0.000000 0.000000 0.288877
    23 1.207001 0.000002 -0.000004 0.000000 0.000000 0.449491
    24 16.925370 16.853744 -7.775462 0.000000 -1.570796 -1.575195
    25 0.087378 -1.651558 7.158638 0.000000 0.000000 0.000000
    26 -0.488876 2.223221 -1.367222 -3.141593 0.000000 -3.141593
    27 0.018969 0.548832 13.887943 0.000000 -1.570796 0.000000
    28 0.000000 0.000000 -67.937500 1.570792 0.000003 -0.000003
  time 2
    0 1.292485 -5.164215 -33.388403 1.570796 0.000000 0.000000
    1 0.000005 3.345127 -2.981904 1.570796 0.086293 1.570796
    2 4.018330 0.000002 0.000000 0.000000 0.000000 -0.029242
    3 3.518570 0.000000 0.000000 0.000000 0.000000 0.100336
    4 8.942642 0.000000 0.000000 0.000000 0.000000 0.194096
    5 2.033356 1.000767 1.937660 2.856284 -0.087004 1.424558
    6 6.028149 0.000000 0.000000 -2.128708 -0.098355 -0.446976
    7 11.692557 -0.000011 -0.000001 0.000000 0.000000 -1.477121
    8 11.481674 -0.000004 -0.000031 -0.696559 -0.215209 1.260536
    9 3.859711 -0.142404 -1.191978 -0.372623 0.151246 -0.938052
    10 1.312559 -0.000003 0.000015 0.000000 0.000000 -1.267530
    11 0.729362 -0.000009 0.000015 0.000000 0.000000 -1.155986
    12 3.942329 0.046771 -0.431446 -0.282530 -0.012793 -0.829988
    13 1.539093 0.000000 -0.000008 0.000000 0.000000 -1.277065
    14 1.196322 -0.000004 -0.000004 0.000000 0.000000 -1.795878
    15 3.883682 -0.046772 0.431435 -0.051681 -0.018858 -0.672071
    16 1.719582 -0.000002 -0.000008 0.000000 0.000003 -1.477115
    17 1.209185 -0.000004 -0.000004 0.000000 0.000004 -1.391239
    18 3.859856 -0.137947 1.332462 0.160095 -0.013795 -0.792635
    19 1.719433 -0.000008 0.000000 0.000000 0.000011 -1.578903
    20 1.099667 0.000004 0.000000 0.000000 0.000005 -1.439578
    21 0.806053 -0.348923 1.321251 -1.267547 -0.328391 -1.077354
    22 1.789780 0.000006 0.000004 0.000000 0.000000 0.288877
    23 1.207001 0.000002 -0.000004 0.000000 0.000000 0.449491
    24 16.866775 17.806898 -7.775462 0.000000 -1.570796 -1.594792
    25 0.087378 -1.651558 7.158638 0.000000 0.000000 0.000000
    26 -0.488876 2.223221 -1.367222 -3.141593 0.000000 -3.141593
    27 0.018969 0.548832 13.887943 0.000000 -1.570796 0.000000
    28 0.000000 0.000000 -67.937500 1.570792 0.000003 -0.000003
  time 3
    0 1.292485 -5.734545 -33.388403 1.570796 0.000000 0.000000
    1 0.000005 3.345127 -2.981904 1.570796 0.086293 1.570796
    2 4.018330 0.000002 0.000000 0.000000 0.000000 -0.029242
    3 3.518570 0.000000 0.000000 0.000000 0.000000 0.100336
    4 8.942642 0.000000 0.000000 0.000000 0.000000 0.194096
    5 2.033356 1.000767 1.937660 2.856284 -0.087004 1.424558
    6 6.028149 0.000000 0.000000 -2.123229 -0.097026 -0.433514
    7 11.692557 -0.000011 -0.000001 0.000000 0.000000 -1.452746
    8 11.481674 -0.000004 -0.000031 -0.709953 -0.202081 1.253038
    9 3.859711 -0.142404 -1.191978 -0.372623 0.151246 -0.938052
    10 1.312559 -0.000003 0.000015 0.000000 0.000000 -1.267530
    11 0.729362 -0.000009 0.000015 0.000000 0.000000 -1.156018
    12 3.942329 0.046771 -0.431446 -0.282530 -0.012793 -0.829988
    13 1.539093 0.000000 -0.000008 0.000000 0.000000 -1.277065
    14 1.196322 -0.000004 -0.000004 0.000000 0.000000 -1.795878
    15 3.883682 -0.046772 0.431435 -0.051681 -0.018858 -0.672071
    16 1.719582 -0.000002 -0.000008 0.000000 0.000003 -1.477115
    17 1.209185 -0.000004 -0.000004 0.000000 0.000004 -1.391274
    18 3.859856 -0.137947 1.332462 0.160083 -0.013795 -0.792635
    19 1.719433 -0.000008 0.000000 0.000000 0.000011 -1.578903
    20 1.099667 0.000004 0.000000 0.000000 0.000005 -1.439578
    21 0.806053 -0.348923 1.321251 -1.267547 -0.328391 -1.077354
    22 1.789780 0.000006 0.000004 0.000000 0.000000 0.288877
    23 1.207001 0.000002 -0.000004 0.000000 0.000000 0.449491
    24 16.874588 18.056906 -7.779369 0.000000 -1.570796 -1.589434
    25 0.087378 -1.651558 7.158638 0.000000 0.000000 0.000000
    26 -0.488876 2.223221 -1.367222 -3.141593 0.000000 -3.141593
    27 0.018969 0.548832 13.887943 0.000000 -1.570796 0.000000
    28 0.000000 0.000000 -67.937500 1.570792 0.000003 -0.000003
  time 4
    0 1.292485 -6.195497 -33.388403 1.570796 0.000000 0.000000
    1 0.000005 3.345127 -2.981904 1.570796 0.086293 1.570796
    2 4.018330 0.000002 0.000000 0.000000 0.000000 -0.029242
    3 3.518570 0.000000 0.000000 0.000000 0.000000 0.100336
    4 8.942642 0.000000 0.000000 0.000000 0.000000 0.194096
    5 2.033356 1.000767 1.937660 2.856284 -0.087004 1.424558
    6 6.028149 0.000000 0.000000 -2.121427 -0.096563 -0.429185
    7 11.692557 -0.000011 -0.000001 0.000000 0.000000 -1.442229
    8 11.481674 -0.000004 -0.000031 -0.717725 -0.191342 1.257620
    9 3.859711 -0.142404 -1.191978 -0.372623 0.151246 -0.938052
    10 1.312559 -0.000003 0.000015 0.000000 0.000000 -1.267530
    11 0.729362 -0.000009 0.000015 0.000000 0.000000 -1.155986
    12 3.942329 0.046771 -0.431446 -0.282530 -0.012805 -0.829988
    13 1.539093 0.000000 -0.000008 0.000000 0.000000 -1.277065
    14 1.196322 -0.000004 -0.000004 0.000000 0.000000 -1.795878
    15 3.883682 -0.046772 0.431435 -0.051681 -0.018858 -0.672071
    16 1.719582 -0.000002 -0.000008 0.000000 0.000003 -1.477115
    17 1.209185 -0.000004 -0.000004 0.000000 0.000016 -1.391274
    18 3.859856 -0.137947 1.332462 0.160095 -0.013795 -0.792635
    19 1.719433 -0.000008 0.000000 0.000000 0.000011 -1.578903
    20 1.099667 0.000004 0.000000 0.000000 0.000005 -1.439578
    21 0.806053 -0.348923 1.321251 -1.267547 -0.328391 -1.077354
    22 1.789780 0.000006 0.000004 0.000000 0.000000 0.288877
    23 1.207001 0.000002 -0.000004 0.000000 0.000000 0.449491
    24 16.901932 18.205348 -7.775462 0.000000 -1.570796 -1.577030
    25 0.087378 -1.651558 7.158638 0.000000 0.000000 0.000000
    26 -0.488876 2.223221 -1.367222 -3.141593 0.000000 -3.141593
    27 0.018969 0.548832 13.887943 0.000000 -1.570796 0.000000
    28 0.000000 0.000000 -67.937500 1.570792 0.000003 -0.000003
  time 5
    0 1.292485 -6.539257 -33.388403 1.570796 0.000000 0.000000
    1 0.000005 3.345127 -2.981904 1.570796 0.086293 1.570796
    2 4.018330 0.000002 0.000000 0.000000 0.000000 -0.029242
    3 3.518570 0.000000 0.000000 0.000000 0.000000 0.100336
    4 8.942642 0.000000 0.000000 0.000000 0.000000 0.194096
    5 2.033356 1.000767 1.937660 2.856284 -0.087004 1.424558
    6 6.028149 0.000000 0.000000 -2.121378 -0.096448 -0.429213
    7 11.692557 -0.000011 -0.000001 0.000000 0.000000 -1.439182
    8 11.481674 -0.000004 -0.000031 -0.722024 -0.183321 1.266367
    9 3.859711 -0.142404 -1.191978 -0.372623 0.151246 -0.938052
    10 1.312559 -0.000003 0.000015 0.000000 0.000000 -1.267500
    11 0.729362 -0.000009 0.000015 0.000000 0.000000 -1.155986
    12 3.942329 0.046771 -0.431446 -0.282530 -0.012793 -0.829988
    13 1.539093 0.000000 -0.000008 0.000000 0.000000 -1.277065
    14 1.196322 -0.000004 -0.000004 0.000000 0.000000 -1.795917
    15 3.883682 -0.046772 0.431435 -0.051681 -0.018858 -0.672071
    16 1.719582 -0.000002 -0.000008 0.000000 0.000003 -1.477115
    17 1.209185 -0.000004 -0.000004 0.000000 0.000004 -1.391239
    18 3.859856 -0.137947 1.332462 0.160095 -0.013795 -0.792635
    19 1.719433 -0.000008 0.000000 0.000000 0.000011 -1.578903
    20 1.099667 0.000004 0.000000 0.000000 0.000005 -1.439578
    21 0.806053 -0.348923 1.321251 -1.267547 -0.328391 -1.077354
    22 1.789780 0.000006 0.000004 0.000000 0.000000 0.288877
    23 1.207001 0.000002 -0.000004 0.000000 0.000000 0.449491
    24 16.933183 18.287381 -7.775462 0.000000 -1.570796 -1.563745
    25 0.087378 -1.651558 7.158638 0.000000 0.000000 0.000000
    26 -0.488876 2.223221 -1.367222 -3.141593 0.000000 -3.141593
    27 0.018969 0.548832 13.887943 0.000000 -1.570796 0.000000
    28 0.000000 0.000000 -67.937500 1.570792 0.000003 -0.000003
  time 6
    0 1.292485 -6.734576 -33.388403 1.570796 0.000000 0.000000
    1 0.000005 3.345127 -2.981904 1.570796 0.086293 1.570796
    2 4.018330 0.000002 0.000000 0.000000 0.000000 -0.029242
    3 3.518570 0.000000 0.000000 0.000000 0.000000 0.100336
    4 8.942642 0.000000 0.000000 0.000000 0.000000 0.194096
    5 2.033356 1.000767 1.937660 2.856284 -0.087004 1.424558
    6 6.028149 0.000000 0.000000 -2.121938 -0.096274 -0.430749
    7 11.692557 -0.000011 -0.000001 0.000000 0.000000 -1.439182
    8 11.481674 -0.000004 -0.000031 -0.723512 -0.179327 1.272383
    9 3.859711 -0.142404 -1.191978 -0.372623 0.151246 -0.938052
    10 1.312559 -0.000003 0.000015 0.000000 0.000000 -1.267530
    11 0.729362 -0.000009 0.000015 0.000000 0.000000 -1.155986
    12 3.942329 0.046771 -0.431446 -0.282530 -0.012793 -0.829988
    13 1.539093 0.000000 -0.000008 0.000000 0.000000 -1.277065
    14 1.196322 -0.000004 -0.000004 0.000000 0.000000 -1.795878
    15 3.883682 -0.046772 0.431435 -0.051681 -0.018858 -0.672071
    16 1.719582 -0.000002 -0.000008 0.000000 0.000003 -1.477115
    17 1.209185 -0.000004 -0.000004 0.000000 0.000004 -1.391274
    18 3.859856 -0.137947 1.332462 0.160095 -0.013795 -0.792635
    19 1.719433 -0.000008 0.000000 0.000000 0.000011 -1.578903
    20 1.099667 0.000004 0.000000 0.000000 0.000005 -1.439578
    21 0.806053 -0.348923 1.321251 -1.267547 -0.328391 -1.077354
    22 1.789780 0.000006 0.000004 0.000000 0.000000 0.288877
    23 1.207001 0.000002 -0.000004 0.000000 0.000000 0.449491
    24 16.944902 18.314726 -7.775462 0.000000 -1.570796 -1.555598
    25 0.087378 -1.651558 7.158638 0.000000 0.000000 0.000000
    26 -0.488876 2.223221 -1.367222 -3.141593 0.000000 -3.141593
    27 0.018969 0.548832 13.887943 0.000000 -1.570796 0.000000
    28 0.000000 0.000000 -67.937500 1.570792 0.000003 -0.000003
  time 7
    0 1.292485 -6.836141 -33.388403 1.570796 0.000000 0.000000
    1 0.000005 3.345127 -2.981904 1.570796 0.086293 1.570796
    2 4.018330 0.000002 0.000000 0.000000 0.000000 -0.029242
    3 3.518570 0.000000 0.000000 0.000000 0.000000 0.100336
    4 8.942642 0.000000 0.000000 0.000000 0.000000 0.194096
    5 2.033356 1.000767 1.937660 2.856284 -0.087004 1.424558
    6 6.028149 0.000000 0.000000 -2.122669 -0.096274 -0.432704
    7 11.692557 -0.000011 -0.000001 0.000000 0.000000 -1.440804
    8 11.481674 -0.000004 -0.000031 -0.723099 -0.178803 1.275114
    9 3.859711 -0.142404 -1.191978 -0.372623 0.151246 -0.938052
    10 1.312559 -0.000003 0.000015 0.000000 0.000000 -1.267530
    11 0.729362 -0.000009 0.000015 0.000000 0.000000 -1.155986
    12 3.942329 0.046771 -0.431446 -0.282530 -0.012793 -0.829988
    13 1.539093 0.000000 -0.000008 0.000000 0.000000 -1.277065
    14 1.196322 -0.000004 -0.000004 0.000000 0.000000 -1.795878
    15 3.883682 -0.046772 0.431435 -0.051681 -0.018858 -0.672071
    16 1.719582 -0.000002 -0.000008 0.000000 0.000003 -1.477115
    17 1.209185 -0.000004 -0.000004 0.000000 0.000004 -1.391239
    18 3.859856 -0.137947 1.332462 0.160095 -0.013795 -0.792635
    19 1.719433 -0.000008 0.000000 0.000000 0.000011 -1.578940
    20 1.099667 0.000004 0.000000 0.000000 0.000005 -1.439578
    21 0.806053 -0.348923 1.321251 -1.267547 -0.328391 -1.077354
    22 1.789780 0.000006 0.000004 0.000000 0.000000 0.288877
    23 1.207001 0.000002 -0.000004 0.000000 0.000000 0.449491
    24 16.944902 18.314726 -7.775462 0.000000 -1.570796 -1.552515
    25 0.087378 -1.651558 7.158638 0.000000 0.000000 0.000000
    26 -0.488876 2.223221 -1.367222 -3.141593 0.000000 -3.141593
    27 0.018969 0.548832 13.887943 0.000000 -1.570796 0.000000
    28 0.000000 0.000000 -67.937500 1.570792 0.000003 -0.000003
  time 8
    0 1.292485 -6.898643 -33.388403 1.570796 0.000000 0.000000
    1 0.000005 3.345127 -2.981904 1.570796 0.086293 1.570796
    2 4.018330 0.000002 0.000000 0.000000 0.000000 -0.029242
    3 3.518570 0.000000 0.000000 0.000000 0.000000 0.100336
    4 8.942642 0.000000 0.000000 0.000000 0.000000 0.194096
    5 2.033356 1.000767 1.937660 2.856284 -0.087004 1.424558
    6 6.028149 0.000000 0.000000 -2.123667 -0.096332 -0.435218
    7 11.692557 -0.000011 -0.000001 0.000000 0.000000 -1.444539
    8 11.481674 -0.000004 -0.000031 -0.721528 -0.179917 1.277752
    9 3.859711 -0.142404 -1.191978 -0.372623 0.151246 -0.938052
    10 1.312559 -0.000003 0.000015 0.000000 0.000000 -1.267530
    11 0.729362 -0.000009 0.000015 0.000000 0.000000 -1.155986
    12 3.942329 0.046771 -0.431446 -0.282530 -0.012805 -0.829988
    13 1.539093 0.000000 -0.000008 0.000000 0.000000 -1.277065
    14 1.196322 -0.000004 -0.000004 0.000000 0.000000 -1.795878
    15 3.883682 -0.046772 0.431435 -0.051681 -0.018858 -0.672071
    16 1.719582 -0.000002 -0.000008 0.000000 0.000003 -1.477115
    17 1.209185 -0.000004 -0.000004 0.000000 0.000016 -1.391274
    18 3.859856 -0.137947 1.332462 0.160095 -0.013795 -0.792635
    19 1.719433 -0.000008 0.000000 0.000000 0.000011 -1.578903
    20 1.099667 0.000004 0.000000 0.000000 0.000005 -1.439578
    21 0.806053 -0.348923 1.321251 -1.267547 -0.328391 -1.077354
    22 1.789780 0.000006 0.000004 0.000000 0.000000 0.288877
    23 1.207001 0.000002 -0.000004 0.000000 0.000000 0.449491
    24 16.944902 18.287381 -7.775462 0.000000 -1.570796 -1.551341
    25 0.087378 -1.651558 7.158638 0.000000 0.000000 0.000000
    26 -0.488876 2.223221 -1.367222 -3.141593 0.000000 -3.141593
    27 0.018969 0.548832 13.887943 0.000000 -1.570796 0.000000
    28 0.000000 0.000000 -67.937500 1.570792 0.000003 -0.000003
  time 9
    0 1.292485 -6.914269 -33.388403 1.570796 0.000000 0.000000
    1 0.000005 3.345127 -2.981904 1.570796 0.086293 1.570796
    2 4.018330 0.000002 0.000000 0.000000 0.000000 -0.029242
    3 3.518570 0.000000 0.000000 0.000000 0.000000 0.100336
    4 8.942642 0.000000 0.000000 0.000000 0.000000 0.194096
    5 2.033356 1.000767 1.937660 2.856284 -0.087004 1.424558
    6 6.028149 0.000000 0.000000 -2.124958 -0.096563 -0.438374
    7 11.692557 -0.000011 -0.000001 0.000000 0.000000 -1.450043
    8 11.481674 -0.000004 -0.000031 -0.718965 -0.182372 1.280436
    9 3.859711 -0.142404 -1.191978 -0.372623 0.151246 -0.938052
    10 1.312559 -0.000003 0.000015 0.000000 0.000000 -1.267530
    11 0.729362 -0.000009 0.000015 0.000000 0.000000 -1.155986
    12 3.942329 0.046771 -0.431446 -0.282530 -0.012793 -0.829988
    13 1.539093 0.000000 -0.000008 0.000000 0.000000 -1.277065
    14 1.196322 -0.000004 -0.000004 0.000000 0.000000 -1.795878
    15 3.883682 -0.046772 0.431435 -0.051681 -0.018858 -0.672071
    16 1.719582 -0.000002 -0.000008 0.000000 0.000003 -1.477115
    17 1.209185 -0.000004 -0.000004 0.000000 0.000016 -1.391239
    18 3.859856 -0.137947 1.332462 0.160095 -0.013795 -0.792635
    19 1.719433 -0.000008 0.000000 0.000000 0.000011 -1.578903
    20 1.099667 0.000004 0.000000 0.000000 0.000005 -1.439578
    21 0.806053 -0.348923 1.321251 -1.267547 -0.328391 -1.077354
    22 1.789780 0.000006 0.000004 0.000000 0.000000 0.288877
    23 1.207001 0.000002 -0.000004 0.000000 0.000000 0.449491
    24 16.944902 18.236599 -7.775462 0.000000 -1.570796 -1.551414
    25 0.087378 -1.651558 7.158638 0.000000 0.000000 0.000000
    26 -0.488876 2.223221 -1.367222 -3.141593 0.000000 -3.141593
    27 0.018969 0.548832 13.887943 0.000000 -1.570796 0.000000
    28 0.000000 0.000000 -67.937500 1.570792 0.000003 -0.000003
  time 10
    0 1.292485 -6.875205 -33.388403 1.570796 0.000000 0.000000
    1 0.000005 3.345127 -2.981904 1.570796 0.086293 1.570796
    2 4.018330 0.000002 0.000000 0.000000 0.000000 -0.029242
    3 3.518570 0.000000 0.000000 0.000000 0.000000 0.100336
    4 8.942642 0.000000 0.000000 0.000000 0.000000 0.194096
    5 2.033356 1.000767 1.937660 2.856284 -0.087004 1.424558
    6 6.028149 0.000000 0.000000 -2.126443 -0.096852 -0.442200
    7 11.692557 -0.000011 -0.000001 0.000000 0.000000 -1.457119
    8 11.481674 -0.000004 -0.000031 -0.715658 -0.185875 1.283306
    9 3.859711 -0.142404 -1.191978 -0.372623 0.151246 -0.938052
    10 1.312559 -0.000003 0.000015 0.000000 0.000000 -1.267530
    11 0.729362 -0.000009 0.000015 0.000000 0.000000 -1.155986
    12 3.942329 0.046771 -0.431446 -0.282530 -0.012793 -0.829988
    13 1.539093 0.000000 -0.000008 0.000000 0.000000 -1.277065
    14 1.196322 -0.000004 -0.000004 0.000000 0.000000 -1.795878
    15 3.883682 -0.046772 0.431435 -0.051681 -0.018858 -0.672071
    16 1.719582 -0.000002 -0.000008 0.000000 0.000003 -1.477115
    17 1.209185 -0.000004 -0.000004 0.000000 0.000004 -1.391239
    18 3.859856 -0.137947 1.332462 0.160095 -0.013795 -0.792635
    19 1.719433 -0.000008 0.000000 0.000000 0.000011 -1.578903
    20 1.099667 0.000004 0.000000 0.000000 0.000005 -1.439578
    21 0.806053 -0.348923 1.321251 -1.267547 -0.328391 -1.077354
    22 1.789780 0.000006 0.000004 0.000000 0.000000 0.288877
    23 1.207001 0.000002 -0.000004 0.000000 0.000000 0.449491
    24 16.944902 18.170190 -7.775462 0.000000 -1.570796 -1.552442
    25 0.087378 -1.651558 7.158638 0.000000 0.000000 0.000000
    26 -0.488876 2.223221 -1.367222 -3.141593 0.000000 -3.141593
    27 0.018969 0.548832 13.887943 0.000000 -1.570796 0.000000
    28 0.000000 0.000000 -67.937500 1.570792 0.000003 -0.000003
  time 11
    0 1.292485 -6.812703 -33.388403 1.570796 0.000000 0.000000
    1 0.000005 3.345127 -2.981904 1.570796 0.086293 1.570796
    2 4.018330 0.000002 0.000000 0.000000 0.000000 -0.029242
    3 3.518570 0.000000 0.000000 0.000000 0.000000 0.100336
    4 8.942642 0.000000 0.000000 0.000000 0.000000 0.194096
    5 2.033356 1.000767 1.937660 2.856284 -0.087004 1.424558
    6 6.028149 0.000000 0.000000 -2.128245 -0.097315 -0.446669
    7 11.692557 -0.000011 -0.000001 0.000000 0.000000 -1.465523
    8 11.481674 -0.000004 -0.000031 -0.711524 -0.190197 1.286406
    9 3.859711 -0.142404 -1.191978 -0.372623 0.151246 -0.938052
    10 1.312559 -0.000003 0.000015 0.000000 0.000000 -1.267530
    11 0.729362 -0.000009 0.000015 0.000000 0.000000 -1.155986
    12 3.942329 0.046771 -0.431446 -0.282530 -0.012805 -0.829988
    13 1.539093 0.000000 -0.000008 0.000000 0.000000 -1.277065
    14 1.196322 -0.000004 -0.000004 0.000000 0.000000 -1.795878
    15 3.883682 -0.046772 0.431435 -0.051681 -0.018858 -0.672071
    16 1.719582 -0.000002 -0.000008 0.000000 0.000003 -1.477115
    17 1.209185 -0.000004 -0.000004 0.000000 0.000016 -1.391239
    18 3.859856 -0.137947 1.332462 0.160095 -0.013795 -0.792635
    19 1.719433 -0.000008 0.000000 0.000000 0.000011 -1.578940
    20 1.099667 0.000004 0.000000 0.000000 0.000005 -1.439578
    21 0.806053 -0.348923 1.321251 -1.267547 -0.328391 -1.077354
    22 1.789780 0.000006 0.000004 0.000000 0.000000 0.288877
    23 1.207001 0.000002 -0.000004 0.000000 0.000000 0.449491
    24 16.944902 18.080344 -7.775462 0.000000 -1.570796 -1.554130
    25 0.087378 -1.651558 7.158638 0.000000 0.000000 0.000000
    26 -0.488876 2.223221 -1.367222 -3.141593 0.000000 -3.141593
    27 0.018969 0.548832 13.887943 0.000000 -1.570796 0.000000
    28 0.000000 0.000000 -67.937500 1.570792 0.000003 -0.000003
  time 12
    0 1.292485 -6.738482 -33.388403 1.570796 0.000000 0.000000
    1 0.000005 3.345127 -2.981904 1.570796 0.086293 1.570796
    2 4.018330 0.000002 0.000000 0.000000 0.000000 -0.029242
    3 3.518570 0.000000 0.000000 0.000000 0.000000 0.100336
    4 8.942642 0.000000 0.000000 0.000000 0.000000 0.194096
    5 2.033356 1.000767 1.937660 2.856284 -0.087004 1.424558
    6 6.028149 0.000000 0.000000 -2.130339 -0.097835 -0.451864
    7 11.692557 -0.000011 -0.000001 0.000000 0.000000 -1.474959
    8 11.481674 -0.000004 -0.000031 -0.706811 -0.195075 1.290016
    9 3.859711 -0.142404 -1.191978 -0.372623 0.151246 -0.938052
    10 1.312559 -0.000003 0.000015 0.000000 0.000000 -1.267500
    11 0.729362 -0.000009 0.000015 0.000000 0.000000 -1.155986
    12 3.942329 0.046771 -0.431446 -0.282530 -0.012805 -0.829988
    13 1.539093 0.000000 -0.000008 0.000000 0.000000 -1.277065
    14 1.196322 -0.000004 -0.000004 0.000000 0.000000 -1.795878
    15 3.883682 -0.046772 0.431435 -0.051693 -0.018858 -0.672071
    16 1.719582 -0.000002 -0.000008 0.000000 0.000003 -1.477081
    17 1.209185 -0.000004 -0.000004 0.000000 0.000004 -1.391239
    18 3.859856 -0.137947 1.332462 0.160083 -0.013795 -0.792635
    19 1.719433 -0.000008 0.000000 0.000000 0.000011 -1.578903
    20 1.099667 0.000004 0.000000 0.000000 0.000005 -1.439578
    21 0.806053 -0.348923 1.321251 -1.267547 -0.328391 -1.077366
    22 1.789780 0.000006 0.000004 0.000000 0.000000 0.288877
    23 1.207001 0.000002 -0.000004 0.000000 0.000000 0.449491
    24 16.944902 17.986591 -7.775462 0.000000 -1.570796 -1.555598
    25 0.087378 -1.651558 7.158638 0.000000 0.000000 0.000000
    26 -0.488876 2.223221 -1.367222 -3.141593 0.000000 -3.141593
    27 0.018969 0.548832 13.887943 0.000000 -1.570796 0.000000
    28 0.000000 0.000000 -67.937500 1.570792 0.000003 -0.000003
  time 13
    0 1.292485 -6.675980 -33.388403 1.570796 0.000000 0.000000
    1 0.000005 3.345127 -2.981904 1.570796 0.086293 1.570796
    2 4.018330 0.000002 0.000000 0.000000 0.000000 -0.029242
    3 3.518570 0.000000 0.000000 0.000000 0.000000 0.100336
    4 8.942642 0.000000 0.000000 0.000000 0.000000 0.194096
    5 2.033356 1.000767 1.937660 2.856284 -0.087004 1.424558
    6 6.028149 0.000000 0.000000 -2.132117 -0.098355 -0.456193
    7 11.692557 -0.000011 -0.000001 0.000000 0.000000 -1.482379
    8 11.481674 -0.000004 -0.000031 -0.702925 -0.198840 1.293071
    9 3.859711 -0.142404 -1.191978 -0.372623 0.151246 -0.938052
    10 1.312559 -0.000003 0.000015 0.000000 0.000000 -1.267530
    11 0.729362 -0.000009 0.000015 0.000000 0.000000 -1.155986
    12 3.942329 0.046771 -0.431446 -0.282530 -0.012805 -0.829988
    13 1.539093 0.000000 -0.000008 0.000000 0.000000 -1.277065
    14 1.196322 -0.000004 -0.000004 0.000000 0.000000 -1.795878
    15 3.883682 -0.046772 0.431435 -0.051693 -0.018858 -0.672071
    16 1.719582 -0.000002 -0.000008 0.000000 0.000003 -1.477115
    17 1.209185 -0.000004 -0.000004 0.000000 0.000016 -1.391274
    18 3.859856 -0.137947 1.332462 0.160083 -0.013795 -0.792635
    19 1.719433 -0.000008 0.000000 0.000000 0.000011 -1.578940
    20 1.099667 0.000004 0.000000 0.000000 0.000005 -1.439578
    21 0.806053 -0.348923 1.321251 -1.267547 -0.328391 -1.077354
    22 1.789780 0.000006 0.000004 0.000000 0.000000 0.288877
    23 1.207001 0.000002 -0.000004 0.000000 0.000000 0.449491
    24 16.944902 17.916276 -7.775462 0.000000 -1.570796 -1.556332
    25 0.087378 -1.651558 7.158638 0.000000 0.000000 0.000000
    26 -0.488876 2.223221 -1.367222 -3.141593 0.000000 -3.141593
    27 0.018969 0.548832 13.887943 0.000000 -1.570796 0.000000
    28 0.000000 0.000000 -67.937500 1.570792 0.000003 -0.000003
  time 14
    0 1.292485 -6.633010 -33.388403 1.570796 0.000000 0.000000
    1 0.000005 3.345127 -2.981904 1.570796 0.086293 1.570796
    2 4.018330 0.000002 0.000000 0.000000 0.000000 -0.029242
    3 3.518570 0.000000 0.000000 0.000000 0.000000 0.100336
    4 8.942642 0.000000 0.000000 0.000000 0.000000 0.194096
    5 2.033356 1.000767 1.937660 2.856284 -0.087004 1.424558
    6 6.028149 0.000000 0.000000 -2.133018 -0.098644 -0.458427
    7 11.692557 -0.000011 -0.000001 0.000000 0.000000 -1.486262
    8 11.481674 -0.000004 -0.000031 -0.700941 -0.200837 1.294598
    9 3.859711 -0.142404 -1.191978 -0.372623 0.151246 -0.938052
    10 1.312559 -0.000003 0.000015 0.000000 0.000000 -1.267500
    11 0.729362 -0.000009 0.000015 0.000000 0.000000 -1.155986
    12 3.942329 0.046771 -0.431446 -0.282530 -0.012805 -0.829988
    13 1.539093 0.000000 -0.000008 0.000000 0.000000 -1.277065
    14 1.196322 -0.000004 -0.000004 0.000000 0.000000 -1.795878
    15 3.883682 -0.046772 0.431435 -0.051681 -0.018858 -0.672071
    16 1.719582 -0.000002 -0.000008 0.000000 0.000003 -1.477115
    17 1.209185 -0.000004 -0.000004 0.000000 0.000016 -1.391239
    18 3.859856 -0.137947 1.332462 0.160095 -0.013795 -0.792635
    19 1.719433 -0.000008 0.000000 0.000000 0.000011 -1.578903
    20 1.099667 0.000004 0.000000 0.000000 0.000005 -1.439578
    21 0.806053 -0.348923 1.321251 -1.267547 -0.328391 -1.077366
    22 1.789780 0.000006 0.000004 0.000000 0.000000 0.288877
    23 1.207001 0.000002 -0.000004 0.000000 0.000000 0.449491
    24 16.944902 17.873306 -7.775462 0.000000 -1.570796 -1.556846
    25 0.087378 -1.651558 7.158638 0.000000 0.000000 0.000000
    26 -0.488876 2.223221 -1.367222 -3.141593 0.000000 -3.141593
    27 0.018969 0.548832 13.887943 0.000000 -1.570796 0.000000
    28 0.000000 0.000000 -67.937500 1.570792 0.000003 -0.000003
  time 15
    0 1.292485 -6.613478 -33.388403 1.570796 0.000000 0.000000
    1 0.000005 3.345127 -2.981904 1.570796 0.086293 1.570796
    2 4.018330 0.000002 0.000000 0.000000 0.000000 -0.029242
    3 3.518570 0.000000 0.000000 0.000000 0.000000 0.100336
    4 8.942642 0.000000 0.000000 0.000000 0.000000 0.194096
    5 2.033356 1.000767 1.937660 2.856284 -0.087004 1.424558
    6 6.028149 0.000000 0.000000 -2.133310 -0.098760 -0.459125
    7 11.692557 -0.000011 -0.000001 0.000000 0.000000 -1.487441
    8 11.481674 -0.000004 -0.000031 -0.700279 -0.201459 1.295107
    9 3.859711 -0.142404 -1.191978 -0.372623 0.151246 -0.938052
    10 1.312559 -0.000003 0.000015 0.000000 0.000000 -1.267530
    11 0.729362 -0.000009 0.000015 0.000000 0.000000 -1.155986
    12 3.942329 0.046771 -0.431446 -0.282530 -0.012793 -0.829988
    13 1.539093 0.000000 -0.000008 0.000000 0.000000 -1.277065
    14 1.196322 -0.000004 -0.000004 0.000000 0.000000 -1.795878
    15 3.883682 -0.046772 0.431435 -0.051681 -0.018858 -0.672071
    16 1.719582 -0.000002 -0.000008 0.000000 0.000003 -1.477115
    17 1.209185 -0.000004 -0.000004 0.000000 0.000004 -1.391274
    18 3.859856 -0.137947 1.332462 0.160095 -0.013795 -0.792635
    19 1.719433 -0.000008 0.000000 0.000000 0.000011 -1.578903
    20 1.099667 0.000004 0.000000 0.000000 0.000005 -1.439578
    21 0.806053 -0.348923 1.321251 -1.267547 -0.328391 -1.077354
    22 1.789780 0.000006 0.000004 0.000000 0.000000 0.288877
    23 1.207001 0.000002 -0.000004 0.000000 0.000000 0.449491
    24 16.944902 17.865494 -7.775462 0.000000 -1.570796 -1.556846
    25 0.087378 -1.651558 7.158638 0.000000 0.000000 0.000000
    26 -0.488876 2.223221 -1.367222 -3.141593 0.000000 -3.141593
    27 0.018969 0.548832 13.887943 0.000000 -1.570796 0.000000
    28 0.000000 0.000000 -67.937500 1.570792 0.000003 -0.000003
  time 16
    0 1.292485 -6.609572 -33.388403 1.570796 0.000000 0.000000
    1 0.000005 3.345127 -2.981904 1.570796 0.086293 1.570796
    2 4.018330 0.000002 0.000000 0.000000 0.000000 -0.029242
    3 3.518570 0.000000 0.000000 0.000000 0.000000 0.100336
    4 8.942642 0.000000 0.000000 0.000000 0.000000 0.194096
    5 2.033356 1.000767 1.937660 2.856284 -0.087004 1.424558
    6 6.028149 0.000000 0.000000 -2.133115 -0.098702 -0.458678
    7 11.692557 -0.000011 -0.000001 0.000000 0.000000 -1.486704
    8 11.481674 -0.000004 -0.000031 -0.700693 -0.201066 1.294783
    9 3.859711 -0.142404 -1.191978 -0.372623 0.151246 -0.938052
    10 1.312559 -0.000003 0.000015 0.000000 0.000000 -1.267530
    11 0.729362 -0.000009 0.000015 0.000000 0.000000 -1.155986
    12 3.942329 0.046771 -0.431446 -0.282530 -0.012805 -0.829988
    13 1.539093 0.000000 -0.000008 0.000000 0.000000 -1.277065
    14 1.196322 -0.000004 -0.000004 0.000000 0.000000 -1.795878
    15 3.883682 -0.046772 0.431435 -0.051681 -0.018858 -0.672071
    16 1.719582 -0.000002 -0.000008 0.000000 0.000003 -1.477115
    17 1.209185 -0.000004 -0.000004 0.000000 0.000016 -1.391239
    18 3.859856 -0.137947 1.332462 0.160095 -0.013795 -0.792635
    19 1.719433 -0.000008 0.000000 0.000000 0.000011 -1.578903
    20 1.099667 0.000004 0.000000 0.000000 0.000005 -1.439578
    21 0.806053 -0.348923 1.321251 -1.267547 -0.328391 -1.077354
    22 1.789780 0.000006 0.000004 0.000000 0.000000 0.288877
    23 1.207001 0.000002 -0.000004 0.000000 0.000000 0.449491
    24 16.944902 17.869400 -7.775462 0.000000 -1.570796 -1.556846
    25 0.087378 -1.651558 7.158638 0.000000 0.000000 0.000000
    26 -0.488876 2.223221 -1.367222 -3.141593 0.000000 -3.141593
    27 0.018969 0.548832 13.887943 0.000000 -1.570796 0.000000
    28 0.000000 0.000000 -67.937500 1.570792 0.000003 -0.000003
  time 17
    0 1.292485 -6.621291 -33.388403 1.570796 0.000000 0.000000
    1 0.000005 3.345127 -2.981904 1.570796 0.086293 1.570796
    2 4.018330 0.000002 0.000000 0.000000 0.000000 -0.029242
    3 3.518570 0.000000 0.000000 0.000000 0.000000 0.100336
    4 8.942642 0.000000 0.000000 0.000000 0.000000 0.194096
    5 2.033356 1.000767 1.937660 2.856284 -0.087004 1.424558
    6 6.028149 0.000000 0.000000 -2.132604 -0.098587 -0.457366
    7 11.692557 -0.000011 -0.000001 0.000000 0.000000 -1.484394
    8 11.481674 -0.000004 -0.000031 -0.701850 -0.199854 1.293858
    9 3.859711 -0.142404 -1.191978 -0.372611 0.151246 -0.938052
    10 1.312559 -0.000003 0.000015 0.000000 0.000000 -1.267530
    11 0.729362 -0.000009 0.000015 0.000000 0.000000 -1.155986
    12 3.942329 0.046771 -0.431446 -0.282530 -0.012793 -0.829988
    13 1.539093 0.000000 -0.000008 0.000000 0.000000 -1.277065
    14 1.196322 -0.000004 -0.000004 0.000000 0.000000 -1.795878
    15 3.883682 -0.046772 0.431435 -0.051681 -0.018858 -0.672071
    16 1.719582 -0.000002 -0.000008 0.000000 0.000003 -1.477115
    17 1.209185 -0.000004 -0.000004 0.000000 0.000004 -1.391274
    18 3.859856 -0.137947 1.332462 0.160095 -0.013795 -0.792635
    19 1.719433 -0.000008 0.000000 0.000000 0.000011 -1.578903
    20 1.099667 0.000004 0.000000 0.000000 0.000005 -1.439578
    21 0.806053 -0.348923 1.321251 -1.267547 -0.328391 -1.077354
    22 1.789780 0.000006 0.000004 0.000000 0.000000 0.288877
    23 1.207001 0.000002 -0.000004 0.000000 0.000000 0.449491
    24 16.944902 17.892838 -7.775462 0.000000 -1.570796 -1.556626
    25 0.087378 -1.651558 7.158638 0.000000 0.000000 0.000000
    26 -0.488876 2.223221 -1.367222 -3.141593 0.000000 -3.141593
    27 0.018969 0.548832 13.887943 0.000000 -1.570796 0.000000
    28 0.000000 0.000000 -67.937500 1.570792 0.000003 -0.000003
  time 18
    0 1.292485 -6.633010 -33.388403 1.570796 0.000000 0.000000
    1 0.000005 3.345127 -2.981904 1.570796 0.086293 1.570796
    2 4.018330 0.000002 0.000000 0.000000 0.000000 -0.029242
    3 3.518570 0.000000 0.000000 0.000000 0.000000 0.100336
    4 8.942642 0.000000 0.000000 0.000000 0.000000 0.194096
    5 2.033356 1.000767 1.937660 2.856284 -0.087004 1.424558
    6 6.028149 0.000000 0.000000 -2.131825 -0.098298 -0.455439
    7 11.692557 -0.000011 -0.000001 0.000000 0.000000 -1.481151
    8 11.481674 -0.000004 -0.000031 -0.703586 -0.198218 1.292562
    9 3.859711 -0.142404 -1.191978 -0.372623 0.151246 -0.938052
    10 1.312559 -0.000003 0.000015 0.000000 0.000000 -1.267530
    11 0.729362 -0.000009 0.000015 0.000000 0.000000 -1.155986
    12 3.942329 0.046771 -0.431446 -0.282530 -0.012793 -0.829988
    13 1.539093 0.000000 -0.000008 0.000000 0.000000 -1.277065
    14 1.196322 -0.000004 -0.000004 0.000000 0.000000 -1.795878
    15 3.883682 -0.046772 0.431435 -0.051681 -0.018858 -0.672071
    16 1.719582 -0.000002 -0.000008 0.000000 0.000003 -1.477115
    17 1.209185 -0.000004 -0.000004 0.000000 0.000004 -1.391274
    18 3.859856 -0.137947 1.332462 0.160095 -0.013795 -0.792635
    19 1.719433 -0.000008 0.000000 0.000000 0.000011 -1.578903
    20 1.099667 0.000004 0.000000 0.000000 0.000005 -1.439578
    21 0.806053 -0.348923 1.321251 -1.267547 -0.328391 -1.077354
    22 1.789780 0.000006 0.000004 0.000000 0.000000 0.288877
    23 1.207001 0.000002 -0.000004 0.000000 0.000000 0.449491
    24 16.944902 17.924089 -7.775462 0.000000 -1.570796 -1.556259
    25 0.087378 -1.651558 7.158638 0.000000 0.000000 0.000000
    26 -0.488876 2.223221 -1.367222 -3.141593 0.000000 -3.141593
    27 0.018969 0.548832 13.887943 0.000000 -1.570796 0.000000
    28 0.000000 0.000000 -67.937500 1.570792 0.000003 -0.000003
  time 19
    0 1.292485 -6.644729 -33.388403 1.570796 0.000000 0.000000
    1 0.000005 3.345127 -2.981904 1.570796 0.086293 1.570796
    2 4.018330 0.000002 0.000000 0.000000 0.000000 -0.029242
    3 3.518570 0.000000 0.000000 0.000000 0.000000 0.100336
    4 8.942642 0.000000 0.000000 0.000000 0.000000 0.194096
    5 2.033356 1.000767 1.937660 2.856284 -0.087004 1.424558
    6 6.028149 0.000000 0.000000 -2.130948 -0.098066 -0.453260
    7 11.692557 -0.000011 -0.000001 0.000000 0.000000 -1.477416
    8 11.481674 -0.000004 -0.000031 -0.705488 -0.196319 1.291034
    9 3.859711 -0.142404 -1.191978 -0.372623 0.151246 -0.938052
    10 1.312559 -0.000003 0.000015 0.000000 0.000000 -1.267530
    11 0.729362 -0.000009 0.000015 0.000000 0.000000 -1.155986
    12 3.942329 0.046771 -0.431446 -0.282530 -0.012793 -0.829988
    13 1.539093 0.000000 -0.000008 0.000000 0.000000 -1.277065
    14 1.196322 -0.000004 -0.000004 0.000000 0.000000 -1.795878
    15 3.883682 -0.046772 0.431435 -0.051681 -0.018858 -0.672071
    16 1.719582 -0.000002 -0.000008 0.000000 0.000003 -1.477115
    17 1.209185 -0.000004 -0.000004 0.000000 0.000004 -1.391239
    18 3.859856 -0.137947 1.332462 0.160095 -0.013795 -0.792635
    19 1.719433 -0.000008 0.000000 0.000000 0.000011 -1.578903
    20 1.099667 0.000004 0.000000 0.000000 0.000005 -1.439578
    21 0.806053 -0.348923 1.321251 -1.267547 -0.328391 -1.077354
    22 1.789780 0.000006 0.000004 0.000000 0.000000 0.288877
    23 1.207001 0.000002 -0.000004 0.000000 0.000000 0.449491
    24 16.944902 17.959246 -7.775462 0.000000 -1.570796 -1.555745
    25 0.087378 -1.651558 7.158638 0.000000 0.000000 0.000000
    26 -0.488876 2.223221 -1.367222 -3.141593 0.000000 -3.141593
    27 0.018969 0.548832 13.887943 0.000000 -1.570796 0.000000
    28 0.000000 0.000000 -67.937500 1.570792 0.000003 -0.000003
  time 20
    0 1.292485 -6.652542 -33.388403 1.570796 0.000000 0.000000
    1 0.000005 3.345127 -2.981904 1.570796 0.086293 1.570796
    2 4.018330 0.000002 0.000000 0.000000 0.000000 -0.029242
    3 3.518570 0.000000 0.000000 0.000000 0.000000 0.100336
    4 8.942642 0.000000 0.000000 0.000000 0.000000 0.194096
    5 2.033356 1.000767 1.937660 2.856284 -0.087004 1.424558
    6 6.028149 0.000000 0.000000 -2.130339 -0.097835 -0.451864
    7 11.692557 -0.000011 -0.000001 0.000000 0.000000 -1.474959
    8 11.481674 -0.000004 -0.000031 -0.706811 -0.195075 1.290016
    9 3.859711 -0.142404 -1.191978 -0.372623 0.151246 -0.938052
    10 1.312559 -0.000003 0.000015 0.000000 0.000000 -1.267500
    11 0.729362 -0.000009 0.000015 0.000000 0.000000 -1.155986
    12 3.942329 0.046771 -0.431446 -0.282530 -0.012805 -0.829988
    13 1.539093 0.000000 -0.000008 0.000000 0.000000 -1.277065
    14 1.196322 -0.000004 -0.000004 0.000000 0.000000 -1.795878
    15 3.883682 -0.046772 0.431435 -0.051693 -0.018858 -0.672071
    16 1.719582 -0.000002 -0.000008 0.000000 0.000003 -1.477081
    17 1.209185 -0.000004 -0.000004 0.000000 0.000004 -1.391239
    18 3.859856 -0.137947 1.332462 0.160083 -0.013795 -0.792635
    19 1.719433 -0.000008 0.000000 0.000000 0.000011 -1.578903
    20 1.099667 0.000004 0.000000 0.000000 0.000005 -1.439578
    21 0.806053 -0.348923 1.321251 -1.267547 -0.328391 -1.077366
    22 1.789780 0.000006 0.000004 0.000000 0.000000 0.288877
    23 1.207001 0.000002 -0.000004 0.000000 0.000000 0.449491
    24 16.944902 17.986591 -7.775462 0.000000 -1.570796 -1.555598
    25 0.087378 -1.651558 7.158638 0.000000 0.000000 0.000000
    26 -0.488876 2.223221 -1.367222 -3.141593 0.000000 -3.141593
    27 0.018969 0.548832 13.887943 0.000000 -1.570796 0.000000
    28 0.000000 0.000000 -67.937500 1.570792 0.000003 -0.000003
end
