"VertexlitGeneric"
{
	"$basetexture" "models/props_lights/flourescent_light_03"
	"$bumpmap" "models/props_lights/flourescent_light_bump"

	//phong parameters

	"$phong" "1"
	"$phongboost" "3"
	"$phongexponent" "80"
	"$phongfresnelranges" "[0.5 0.8 1]"
	
	// Environment map
	"$normalmapalphaenvmapmask" "1" // Not supported when self illum fresnel is enabled!
	"$envmap" "env_cubemap"
	"$envmaptint" "[0.8 0.8 0.8]"
}
