// "vertexlitGeneric"
// {
	// "$basetexture" "models\props_lights/lamp_glass_01"
		
	// "$translucent" "1"
	
	// "$envmap" "env_cubemap"
	// "$envmaptint" "[ 1 1.3 1.3 ]"
// }

"vertexlitGeneric"
{
	"$basetexture" "models\props_lights/lamp_glass_02"
		
	// "$selfillum" "1"
	
	"$envmap" "env_cubemap"
	"$envmaptint" "[ 1 1.3 1.3 ]"
	"$envmapsaturation" ".5"
	"$envmapcontrast" ".9"
}