"VertexlitGeneric"
{
	"$basetexture" "models/props_lights/ligth_floor_01"
	"$bumpmap" "models/props_lights/ligth_floor_01_normals"

	"$phong" "1"
	"$phongboost" "5"
	//"$phongexponenttexture" "models/props_techno/door_01_exponent"
	"$phongexponent" "80"
	"$phongfresnelranges" "[1 5 10]"

	"$selfillum" "1"

	// Environment map
	"$normalmapalphaenvmapmask" "1" // Not supported when self illum fresnel is enabled!
	"$envmap" "env_cubemap"
	//"$envmaptint" "[0.5 0.5 .5]"
}
