"VertexlitGeneric"
{
	"$basetexture" "models/props_lights/Techno_light_01"
	"$bumpmap" "models/props_lights/Techno_light_01_bump"

	"$selfillum" "1"
	"$selfillumtint"	"[2.0 2.0 2.0]"


	//phong parameters

	"$phong" "1"
	"$phongboost" "20"
	"$phongexponent" "10"
	"$phongfresnelranges" "[0.5 0.8 1]"
	"$phongtint" "[ 1 1 1 ]"
	
	// Environment map
	"$normalmapalphaenvmapmask" "1" // Not supported when self illum fresnel is enabled!
	"$envmap" "env_cubemap"
	"$envmaptint" "[ .6 .6 .6 ]"
	
	"$detail" "detail\snow_detail_01"
	"$detailscale" "2"
	"$detailblendfactor" ".3"
	"$detailblendmode" "1"	
}
