"VertexlitGeneric"
{
	"$basetexture" "models/props_lights/Techno_light_01"
	"$bumpmap" "models/props_lights/Techno_light_01_bump"

	"$selfillum" "1"
	"$selfillumtint"	"[1.0 0.05 0.0]"

	//phong parameters

	"$phong" "1"
	"$phongboost" "3"
	"$phongexponent" "50"
	"$phongfresnelranges" "[0.5 0.8 1]"
	
	// Environment map
	"$normalmapalphaenvmapmask" "1" // Not supported when self illum fresnel is enabled!
	"$envmap" "env_cubemap"
	//"$envmaptint" "[0.5 0.5 .5]"
}
