
"VertexLitGeneric"
{
	
	"$baseTexture"			"models/props_pipes/cable_boite_01"
	"$selfIllum"			1
	"$bumpMap"				"models/props_pipes/cable_boite_01_normal"
	"$envmap" "env_cubemap" 
	"$envmaptint" "[ 0.3 0.3 0.3 ]" 

}