"VertexLitGeneric"
{
	
	"$basetexture" "models/cyber/cyber_acces_orange_02"
	"$surfaceprop" "plastic"

	"%keywords" "eye, cyber"
	"$selfillum" 1 
	"$additive" 1
	//"$translucent" 1
	"$nocull" 1
	

	
}