"LightmappedGeneric"
{
	// Original shader: BaseTimesLightmap
	"$basetexture" "Metal/metalceiling007b"
	"$surfaceprop" "metal"
	"%keywords" "borealis"
         $detail detail\metal_detail_01
         $detailscale 4.283
         $detailblendfactor .65
         $detailblendmode 0
}
