// envmaptint_fix
"LightmappedGeneric"
{
%keywords "eyemat"
	"$basetexture" "Metal/metalfloor001a"
	"$surfaceprop"  "metal"
	"$detail" "detail\metal_detail_01"
	"$detailscale" "4.283"
	"$detailblendfactor" .65
	"$detailblendmode" "0"

	"$bumpmap" "Metal/metalfloor001a_normal"
	"$envmaptint" "[ .56 .56 .56 ]"
	"$envmap" "env_cubemap"
	"$normalmapalphaenvmapmask" 1
	"$envmapcontrast" 1
	"$envmapsaturation" 1
}
