"LightmappedGeneric"
{
	"$basetexture" "Metal/metaldoor056a"
	"$surfaceprop" "metal"
	"%keywords" "c17industrial"
	"$envmap" "env_cubemap"
	"$bumpmap" "Metal/metaldoor056a_normal"
	"$normalmapalphaenvmapmask" 1
	"$envmapcontrast" 1
	"$envmapsaturation" 1
	"$envmaptint" "[ 0.5 0.5 0.5 ]"
}

