"LightmappedGeneric"
{
%keywords "eyemat"
	"$basetexture" "Metal/metalwall087a"
	"$surfaceprop"  "metal"
	"$detail" "detail\metal_detail_01"
	"$detailscale" "4.283"
	"$detailblendfactor" .8
	"$detailblendmode" "0"

}
